(kicad_sch (version 20211123) (generator eeschema)

  (uuid 9340c285-5767-42d5-8b6d-63fe2a40ddf3)

  (paper "A4")

  (title_block
    (title "Divergence Meter - logic board")
    (date "2022")
    (company "Made by Toohka / Okarisu")
  )

  (lib_symbols
    (symbol "Connector_Generic:Conn_01x08" (pin_names (offset 1.016) hide) (in_bom yes) (on_board yes)
      (property "Reference" "J" (id 0) (at 0 10.16 0)
        (effects (font (size 1.27 1.27)))
      )
      (property "Value" "Conn_01x08" (id 1) (at 0 -12.7 0)
        (effects (font (size 1.27 1.27)))
      )
      (property "Footprint" "" (id 2) (at 0 0 0)
        (effects (font (size 1.27 1.27)) hide)
      )
      (property "Datasheet" "~" (id 3) (at 0 0 0)
        (effects (font (size 1.27 1.27)) hide)
      )
      (property "ki_keywords" "connector" (id 4) (at 0 0 0)
        (effects (font (size 1.27 1.27)) hide)
      )
      (property "ki_description" "Generic connector, single row, 01x08, script generated (kicad-library-utils/schlib/autogen/connector/)" (id 5) (at 0 0 0)
        (effects (font (size 1.27 1.27)) hide)
      )
      (property "ki_fp_filters" "Connector*:*_1x??_*" (id 6) (at 0 0 0)
        (effects (font (size 1.27 1.27)) hide)
      )
      (symbol "Conn_01x08_1_1"
        (rectangle (start -1.27 -10.033) (end 0 -10.287)
          (stroke (width 0.1524) (type default) (color 0 0 0 0))
          (fill (type none))
        )
        (rectangle (start -1.27 -7.493) (end 0 -7.747)
          (stroke (width 0.1524) (type default) (color 0 0 0 0))
          (fill (type none))
        )
        (rectangle (start -1.27 -4.953) (end 0 -5.207)
          (stroke (width 0.1524) (type default) (color 0 0 0 0))
          (fill (type none))
        )
        (rectangle (start -1.27 -2.413) (end 0 -2.667)
          (stroke (width 0.1524) (type default) (color 0 0 0 0))
          (fill (type none))
        )
        (rectangle (start -1.27 0.127) (end 0 -0.127)
          (stroke (width 0.1524) (type default) (color 0 0 0 0))
          (fill (type none))
        )
        (rectangle (start -1.27 2.667) (end 0 2.413)
          (stroke (width 0.1524) (type default) (color 0 0 0 0))
          (fill (type none))
        )
        (rectangle (start -1.27 5.207) (end 0 4.953)
          (stroke (width 0.1524) (type default) (color 0 0 0 0))
          (fill (type none))
        )
        (rectangle (start -1.27 7.747) (end 0 7.493)
          (stroke (width 0.1524) (type default) (color 0 0 0 0))
          (fill (type none))
        )
        (rectangle (start -1.27 8.89) (end 1.27 -11.43)
          (stroke (width 0.254) (type default) (color 0 0 0 0))
          (fill (type background))
        )
        (pin passive line (at -5.08 7.62 0) (length 3.81)
          (name "Pin_1" (effects (font (size 1.27 1.27))))
          (number "1" (effects (font (size 1.27 1.27))))
        )
        (pin passive line (at -5.08 5.08 0) (length 3.81)
          (name "Pin_2" (effects (font (size 1.27 1.27))))
          (number "2" (effects (font (size 1.27 1.27))))
        )
        (pin passive line (at -5.08 2.54 0) (length 3.81)
          (name "Pin_3" (effects (font (size 1.27 1.27))))
          (number "3" (effects (font (size 1.27 1.27))))
        )
        (pin passive line (at -5.08 0 0) (length 3.81)
          (name "Pin_4" (effects (font (size 1.27 1.27))))
          (number "4" (effects (font (size 1.27 1.27))))
        )
        (pin passive line (at -5.08 -2.54 0) (length 3.81)
          (name "Pin_5" (effects (font (size 1.27 1.27))))
          (number "5" (effects (font (size 1.27 1.27))))
        )
        (pin passive line (at -5.08 -5.08 0) (length 3.81)
          (name "Pin_6" (effects (font (size 1.27 1.27))))
          (number "6" (effects (font (size 1.27 1.27))))
        )
        (pin passive line (at -5.08 -7.62 0) (length 3.81)
          (name "Pin_7" (effects (font (size 1.27 1.27))))
          (number "7" (effects (font (size 1.27 1.27))))
        )
        (pin passive line (at -5.08 -10.16 0) (length 3.81)
          (name "Pin_8" (effects (font (size 1.27 1.27))))
          (number "8" (effects (font (size 1.27 1.27))))
        )
      )
    )
    (symbol "Connector_Generic:Conn_01x12" (pin_names (offset 1.016) hide) (in_bom yes) (on_board yes)
      (property "Reference" "J" (id 0) (at 0 15.24 0)
        (effects (font (size 1.27 1.27)))
      )
      (property "Value" "Conn_01x12" (id 1) (at 0 -17.78 0)
        (effects (font (size 1.27 1.27)))
      )
      (property "Footprint" "" (id 2) (at 0 0 0)
        (effects (font (size 1.27 1.27)) hide)
      )
      (property "Datasheet" "~" (id 3) (at 0 0 0)
        (effects (font (size 1.27 1.27)) hide)
      )
      (property "ki_keywords" "connector" (id 4) (at 0 0 0)
        (effects (font (size 1.27 1.27)) hide)
      )
      (property "ki_description" "Generic connector, single row, 01x12, script generated (kicad-library-utils/schlib/autogen/connector/)" (id 5) (at 0 0 0)
        (effects (font (size 1.27 1.27)) hide)
      )
      (property "ki_fp_filters" "Connector*:*_1x??_*" (id 6) (at 0 0 0)
        (effects (font (size 1.27 1.27)) hide)
      )
      (symbol "Conn_01x12_1_1"
        (rectangle (start -1.27 -15.113) (end 0 -15.367)
          (stroke (width 0.1524) (type default) (color 0 0 0 0))
          (fill (type none))
        )
        (rectangle (start -1.27 -12.573) (end 0 -12.827)
          (stroke (width 0.1524) (type default) (color 0 0 0 0))
          (fill (type none))
        )
        (rectangle (start -1.27 -10.033) (end 0 -10.287)
          (stroke (width 0.1524) (type default) (color 0 0 0 0))
          (fill (type none))
        )
        (rectangle (start -1.27 -7.493) (end 0 -7.747)
          (stroke (width 0.1524) (type default) (color 0 0 0 0))
          (fill (type none))
        )
        (rectangle (start -1.27 -4.953) (end 0 -5.207)
          (stroke (width 0.1524) (type default) (color 0 0 0 0))
          (fill (type none))
        )
        (rectangle (start -1.27 -2.413) (end 0 -2.667)
          (stroke (width 0.1524) (type default) (color 0 0 0 0))
          (fill (type none))
        )
        (rectangle (start -1.27 0.127) (end 0 -0.127)
          (stroke (width 0.1524) (type default) (color 0 0 0 0))
          (fill (type none))
        )
        (rectangle (start -1.27 2.667) (end 0 2.413)
          (stroke (width 0.1524) (type default) (color 0 0 0 0))
          (fill (type none))
        )
        (rectangle (start -1.27 5.207) (end 0 4.953)
          (stroke (width 0.1524) (type default) (color 0 0 0 0))
          (fill (type none))
        )
        (rectangle (start -1.27 7.747) (end 0 7.493)
          (stroke (width 0.1524) (type default) (color 0 0 0 0))
          (fill (type none))
        )
        (rectangle (start -1.27 10.287) (end 0 10.033)
          (stroke (width 0.1524) (type default) (color 0 0 0 0))
          (fill (type none))
        )
        (rectangle (start -1.27 12.827) (end 0 12.573)
          (stroke (width 0.1524) (type default) (color 0 0 0 0))
          (fill (type none))
        )
        (rectangle (start -1.27 13.97) (end 1.27 -16.51)
          (stroke (width 0.254) (type default) (color 0 0 0 0))
          (fill (type background))
        )
        (pin passive line (at -5.08 12.7 0) (length 3.81)
          (name "Pin_1" (effects (font (size 1.27 1.27))))
          (number "1" (effects (font (size 1.27 1.27))))
        )
        (pin passive line (at -5.08 -10.16 0) (length 3.81)
          (name "Pin_10" (effects (font (size 1.27 1.27))))
          (number "10" (effects (font (size 1.27 1.27))))
        )
        (pin passive line (at -5.08 -12.7 0) (length 3.81)
          (name "Pin_11" (effects (font (size 1.27 1.27))))
          (number "11" (effects (font (size 1.27 1.27))))
        )
        (pin passive line (at -5.08 -15.24 0) (length 3.81)
          (name "Pin_12" (effects (font (size 1.27 1.27))))
          (number "12" (effects (font (size 1.27 1.27))))
        )
        (pin passive line (at -5.08 10.16 0) (length 3.81)
          (name "Pin_2" (effects (font (size 1.27 1.27))))
          (number "2" (effects (font (size 1.27 1.27))))
        )
        (pin passive line (at -5.08 7.62 0) (length 3.81)
          (name "Pin_3" (effects (font (size 1.27 1.27))))
          (number "3" (effects (font (size 1.27 1.27))))
        )
        (pin passive line (at -5.08 5.08 0) (length 3.81)
          (name "Pin_4" (effects (font (size 1.27 1.27))))
          (number "4" (effects (font (size 1.27 1.27))))
        )
        (pin passive line (at -5.08 2.54 0) (length 3.81)
          (name "Pin_5" (effects (font (size 1.27 1.27))))
          (number "5" (effects (font (size 1.27 1.27))))
        )
        (pin passive line (at -5.08 0 0) (length 3.81)
          (name "Pin_6" (effects (font (size 1.27 1.27))))
          (number "6" (effects (font (size 1.27 1.27))))
        )
        (pin passive line (at -5.08 -2.54 0) (length 3.81)
          (name "Pin_7" (effects (font (size 1.27 1.27))))
          (number "7" (effects (font (size 1.27 1.27))))
        )
        (pin passive line (at -5.08 -5.08 0) (length 3.81)
          (name "Pin_8" (effects (font (size 1.27 1.27))))
          (number "8" (effects (font (size 1.27 1.27))))
        )
        (pin passive line (at -5.08 -7.62 0) (length 3.81)
          (name "Pin_9" (effects (font (size 1.27 1.27))))
          (number "9" (effects (font (size 1.27 1.27))))
        )
      )
    )
    (symbol "Mechanical:MountingHole_Pad" (pin_numbers hide) (pin_names (offset 1.016) hide) (in_bom yes) (on_board yes)
      (property "Reference" "H" (id 0) (at 0 6.35 0)
        (effects (font (size 1.27 1.27)))
      )
      (property "Value" "MountingHole_Pad" (id 1) (at 0 4.445 0)
        (effects (font (size 1.27 1.27)))
      )
      (property "Footprint" "" (id 2) (at 0 0 0)
        (effects (font (size 1.27 1.27)) hide)
      )
      (property "Datasheet" "~" (id 3) (at 0 0 0)
        (effects (font (size 1.27 1.27)) hide)
      )
      (property "ki_keywords" "mounting hole" (id 4) (at 0 0 0)
        (effects (font (size 1.27 1.27)) hide)
      )
      (property "ki_description" "Mounting Hole with connection" (id 5) (at 0 0 0)
        (effects (font (size 1.27 1.27)) hide)
      )
      (property "ki_fp_filters" "MountingHole*Pad*" (id 6) (at 0 0 0)
        (effects (font (size 1.27 1.27)) hide)
      )
      (symbol "MountingHole_Pad_0_1"
        (circle (center 0 1.27) (radius 1.27)
          (stroke (width 1.27) (type default) (color 0 0 0 0))
          (fill (type none))
        )
      )
      (symbol "MountingHole_Pad_1_1"
        (pin input line (at 0 -2.54 90) (length 2.54)
          (name "1" (effects (font (size 1.27 1.27))))
          (number "1" (effects (font (size 1.27 1.27))))
        )
      )
    )
    (symbol "itron_iv_6:itron_IV_6" (in_bom yes) (on_board yes)
      (property "Reference" "itr" (id 0) (at 0 0 0)
        (effects (font (size 1.27 1.27)))
      )
      (property "Value" "itron_IV_6" (id 1) (at -10.16 -5.08 0)
        (effects (font (size 1.27 1.27)))
      )
      (property "Footprint" "" (id 2) (at 0 0 0)
        (effects (font (size 1.27 1.27)) hide)
      )
      (property "Datasheet" "" (id 3) (at 0 0 0)
        (effects (font (size 1.27 1.27)) hide)
      )
      (symbol "itron_IV_6_0_1"
        (circle (center 0 -13.97) (radius 8.9803)
          (stroke (width 0) (type default) (color 0 0 0 0))
          (fill (type none))
        )
      )
      (symbol "itron_IV_6_1_1"
        (pin input line (at -10.16 -11.43 0) (length 2.54)
          (name "B" (effects (font (size 1.27 1.27))))
          (number "1" (effects (font (size 1.27 1.27))))
        )
        (pin input line (at -2.54 -24.13 90) (length 2.54)
          (name "C" (effects (font (size 1.27 1.27))))
          (number "10" (effects (font (size 1.27 1.27))))
        )
        (pin input line (at -10.16 -16.51 0) (length 2.54)
          (name "DP" (effects (font (size 1.27 1.27))))
          (number "11" (effects (font (size 1.27 1.27))))
        )
        (pin input line (at -2.54 -3.81 270) (length 2.54)
          (name "A" (effects (font (size 1.27 1.27))))
          (number "2" (effects (font (size 1.27 1.27))))
        )
        (pin input line (at 0 -2.54 270) (length 2.54)
          (name "G" (effects (font (size 1.27 1.27))))
          (number "3" (effects (font (size 1.27 1.27))))
        )
        (pin input line (at 2.54 -3.81 270) (length 2.54)
          (name "F" (effects (font (size 1.27 1.27))))
          (number "4" (effects (font (size 1.27 1.27))))
        )
        (pin input line (at 10.16 -11.43 180) (length 2.54)
          (name "E" (effects (font (size 1.27 1.27))))
          (number "5" (effects (font (size 1.27 1.27))))
        )
        (pin input line (at 11.43 -13.97 180) (length 2.54)
          (name "D" (effects (font (size 1.27 1.27))))
          (number "6" (effects (font (size 1.27 1.27))))
        )
        (pin input line (at 10.16 -16.51 180) (length 2.54)
          (name "Cath" (effects (font (size 1.27 1.27))))
          (number "7" (effects (font (size 1.27 1.27))))
        )
        (pin input line (at 2.54 -24.13 90) (length 2.54)
          (name "Cath" (effects (font (size 1.27 1.27))))
          (number "8" (effects (font (size 1.27 1.27))))
        )
        (pin input line (at 0 -25.4 90) (length 2.54)
          (name "Grid" (effects (font (size 1.27 1.27))))
          (number "9" (effects (font (size 1.27 1.27))))
        )
      )
    )
    (symbol "power:+1V5" (power) (pin_names (offset 0)) (in_bom yes) (on_board yes)
      (property "Reference" "#PWR" (id 0) (at 0 -3.81 0)
        (effects (font (size 1.27 1.27)) hide)
      )
      (property "Value" "+1V5" (id 1) (at 0 3.556 0)
        (effects (font (size 1.27 1.27)))
      )
      (property "Footprint" "" (id 2) (at 0 0 0)
        (effects (font (size 1.27 1.27)) hide)
      )
      (property "Datasheet" "" (id 3) (at 0 0 0)
        (effects (font (size 1.27 1.27)) hide)
      )
      (property "ki_keywords" "power-flag" (id 4) (at 0 0 0)
        (effects (font (size 1.27 1.27)) hide)
      )
      (property "ki_description" "Power symbol creates a global label with name \"+1V5\"" (id 5) (at 0 0 0)
        (effects (font (size 1.27 1.27)) hide)
      )
      (symbol "+1V5_0_1"
        (polyline
          (pts
            (xy -0.762 1.27)
            (xy 0 2.54)
          )
          (stroke (width 0) (type default) (color 0 0 0 0))
          (fill (type none))
        )
        (polyline
          (pts
            (xy 0 0)
            (xy 0 2.54)
          )
          (stroke (width 0) (type default) (color 0 0 0 0))
          (fill (type none))
        )
        (polyline
          (pts
            (xy 0 2.54)
            (xy 0.762 1.27)
          )
          (stroke (width 0) (type default) (color 0 0 0 0))
          (fill (type none))
        )
      )
      (symbol "+1V5_1_1"
        (pin power_in line (at 0 0 90) (length 0) hide
          (name "+1V5" (effects (font (size 1.27 1.27))))
          (number "1" (effects (font (size 1.27 1.27))))
        )
      )
    )
    (symbol "power:GND" (power) (pin_names (offset 0)) (in_bom yes) (on_board yes)
      (property "Reference" "#PWR" (id 0) (at 0 -6.35 0)
        (effects (font (size 1.27 1.27)) hide)
      )
      (property "Value" "GND" (id 1) (at 0 -3.81 0)
        (effects (font (size 1.27 1.27)))
      )
      (property "Footprint" "" (id 2) (at 0 0 0)
        (effects (font (size 1.27 1.27)) hide)
      )
      (property "Datasheet" "" (id 3) (at 0 0 0)
        (effects (font (size 1.27 1.27)) hide)
      )
      (property "ki_keywords" "power-flag" (id 4) (at 0 0 0)
        (effects (font (size 1.27 1.27)) hide)
      )
      (property "ki_description" "Power symbol creates a global label with name \"GND\" , ground" (id 5) (at 0 0 0)
        (effects (font (size 1.27 1.27)) hide)
      )
      (symbol "GND_0_1"
        (polyline
          (pts
            (xy 0 0)
            (xy 0 -1.27)
            (xy 1.27 -1.27)
            (xy 0 -2.54)
            (xy -1.27 -1.27)
            (xy 0 -1.27)
          )
          (stroke (width 0) (type default) (color 0 0 0 0))
          (fill (type none))
        )
      )
      (symbol "GND_1_1"
        (pin power_in line (at 0 0 270) (length 0) hide
          (name "GND" (effects (font (size 1.27 1.27))))
          (number "1" (effects (font (size 1.27 1.27))))
        )
      )
    )
  )

  (junction (at 189.23 100.33) (diameter 0) (color 0 0 0 0)
    (uuid 023011fd-8c6b-4c59-927b-38a6b78ac7d1)
  )
  (junction (at 133.35 100.33) (diameter 0) (color 0 0 0 0)
    (uuid 083e1a17-4d2b-41f4-9f1b-ca7db66d10c6)
  )
  (junction (at 162.56 69.85) (diameter 0) (color 0 0 0 0)
    (uuid 0bf360fe-d53b-4fba-8e46-9750b65ec503)
  )
  (junction (at 53.34 128.27) (diameter 0) (color 0 0 0 0)
    (uuid 0ea5c25b-e9e4-443b-bc25-6f055e880c4a)
  )
  (junction (at 154.94 68.58) (diameter 0) (color 0 0 0 0)
    (uuid 0f2380dd-3d0c-4344-9111-056457fe100b)
  )
  (junction (at 190.5 83.82) (diameter 0) (color 0 0 0 0)
    (uuid 11338925-1d78-44eb-8945-bafb4bea6979)
  )
  (junction (at 125.73 133.35) (diameter 0) (color 0 0 0 0)
    (uuid 13caf2ba-ce4a-41a0-b219-61c581683518)
  )
  (junction (at 152.4 137.16) (diameter 0) (color 0 0 0 0)
    (uuid 17c2b79c-d7bc-4b6f-ae65-62d9c6c44a17)
  )
  (junction (at 138.43 63.5) (diameter 0) (color 0 0 0 0)
    (uuid 23b8c23a-2853-40c3-a53a-30fd914fa018)
  )
  (junction (at 163.83 83.82) (diameter 0) (color 0 0 0 0)
    (uuid 24485594-06f1-4f4f-813a-edf2c9ea9d9c)
  )
  (junction (at 154.94 135.89) (diameter 0) (color 0 0 0 0)
    (uuid 2a047ba3-1265-48c2-9aba-747f2aba922c)
  )
  (junction (at 163.83 71.12) (diameter 0) (color 0 0 0 0)
    (uuid 2ca9ffbb-a786-4e56-9793-1ea44e250feb)
  )
  (junction (at 203.2 101.6) (diameter 0) (color 0 0 0 0)
    (uuid 2cf9b91f-36d1-4c3a-b482-be26cfa6723f)
  )
  (junction (at 149.86 138.43) (diameter 0) (color 0 0 0 0)
    (uuid 2e8a0e7d-b8cb-4d7e-ba29-f94a45314cf7)
  )
  (junction (at 133.35 69.85) (diameter 0) (color 0 0 0 0)
    (uuid 35194ade-81f3-4792-b620-097d0f72cd7b)
  )
  (junction (at 149.86 66.04) (diameter 0) (color 0 0 0 0)
    (uuid 354cdb34-ab34-41da-ae5f-9e0e75256366)
  )
  (junction (at 176.53 101.6) (diameter 0) (color 0 0 0 0)
    (uuid 376b0330-5976-42a1-9795-d51a0cb15beb)
  )
  (junction (at 168.91 139.7) (diameter 0) (color 0 0 0 0)
    (uuid 387bb5da-fa7e-421d-9ebe-48224515155f)
  )
  (junction (at 125.73 102.87) (diameter 0) (color 0 0 0 0)
    (uuid 3c5bd129-5de8-482d-8c71-2b56173d72ca)
  )
  (junction (at 133.35 124.46) (diameter 0) (color 0 0 0 0)
    (uuid 4871090e-e0b1-4014-8fea-f2f7f4c1f8bb)
  )
  (junction (at 208.28 102.87) (diameter 0) (color 0 0 0 0)
    (uuid 49e9801a-ca64-4887-acaa-1852b72c90b0)
  )
  (junction (at 217.17 83.82) (diameter 0) (color 0 0 0 0)
    (uuid 53fd8e67-1cc5-4525-a97f-f53cc240a3a6)
  )
  (junction (at 189.23 69.85) (diameter 0) (color 0 0 0 0)
    (uuid 568648f7-ac47-48c3-bd62-92ec15744260)
  )
  (junction (at 179.07 137.16) (diameter 0) (color 0 0 0 0)
    (uuid 59005896-4816-4eaa-bcde-06df3c15d37e)
  )
  (junction (at 165.1 63.5) (diameter 0) (color 0 0 0 0)
    (uuid 5bbd11fe-5f00-4df8-b47a-cfb88b4fa049)
  )
  (junction (at 120.65 101.6) (diameter 0) (color 0 0 0 0)
    (uuid 62f14c43-2006-4d9c-9ab8-2c0be4ab8f71)
  )
  (junction (at 109.22 124.46) (diameter 0) (color 0 0 0 0)
    (uuid 6887f346-34fb-47be-9aca-e3608346da89)
  )
  (junction (at 123.19 71.12) (diameter 0) (color 0 0 0 0)
    (uuid 716e5416-b330-423a-811f-046a4ee64f5e)
  )
  (junction (at 165.1 140.97) (diameter 0) (color 0 0 0 0)
    (uuid 7af6484f-4c0f-4bb6-8c11-76d16aa0127b)
  )
  (junction (at 162.56 100.33) (diameter 0) (color 0 0 0 0)
    (uuid 7db5d8f0-a910-4752-a005-fa209f1abdec)
  )
  (junction (at 113.03 125.73) (diameter 0) (color 0 0 0 0)
    (uuid 7fa0dac8-3c7a-41e3-abec-5a25513b953e)
  )
  (junction (at 181.61 102.87) (diameter 0) (color 0 0 0 0)
    (uuid 86359855-82b9-4b88-b24d-0cce9e35d2ed)
  )
  (junction (at 134.62 83.82) (diameter 0) (color 0 0 0 0)
    (uuid 925b0ad6-5413-4b16-a720-28e9e56ec287)
  )
  (junction (at 53.34 140.97) (diameter 0) (color 0 0 0 0)
    (uuid 96a61cf1-825f-4c18-a666-bd09bd5fe3b6)
  )
  (junction (at 176.53 138.43) (diameter 0) (color 0 0 0 0)
    (uuid 9bcc8639-3a93-4e97-82c0-ce38f6b90db8)
  )
  (junction (at 189.23 134.62) (diameter 0) (color 0 0 0 0)
    (uuid a3d9cdb6-e43b-461e-a4de-1d1950b91964)
  )
  (junction (at 149.86 101.6) (diameter 0) (color 0 0 0 0)
    (uuid acbe3bc2-da2d-4575-a015-e9f4e495bd9e)
  )
  (junction (at 105.41 120.65) (diameter 0) (color 0 0 0 0)
    (uuid ace22119-b445-4d35-82de-78087ed2ce34)
  )
  (junction (at 120.65 72.39) (diameter 0) (color 0 0 0 0)
    (uuid ae93933d-bd7e-4401-b9d9-e5d7ebc1523c)
  )
  (junction (at 133.35 81.28) (diameter 0) (color 0 0 0 0)
    (uuid afa39b9f-bfd4-4298-8d4d-f20a8db9d0fd)
  )
  (junction (at 181.61 135.89) (diameter 0) (color 0 0 0 0)
    (uuid bb129291-f2e6-46dd-9837-54ea9080eef3)
  )
  (junction (at 168.91 64.77) (diameter 0) (color 0 0 0 0)
    (uuid bb3522ef-5746-4cd6-b341-aa2d4b5b0454)
  )
  (junction (at 120.65 66.04) (diameter 0) (color 0 0 0 0)
    (uuid c02f163d-7ad2-44f1-a24d-9a554c371384)
  )
  (junction (at 114.3 64.77) (diameter 0) (color 0 0 0 0)
    (uuid c6a9b2da-bd30-4983-ad00-dc03e640a581)
  )
  (junction (at 154.94 102.87) (diameter 0) (color 0 0 0 0)
    (uuid c736206d-92c2-49fd-be8c-937d2bb55d25)
  )
  (junction (at 134.62 71.12) (diameter 0) (color 0 0 0 0)
    (uuid c841b0f8-68b3-4b16-9549-1726de9d39d1)
  )
  (junction (at 176.53 66.04) (diameter 0) (color 0 0 0 0)
    (uuid ce9231c3-ef0f-4298-8666-3e023bba7902)
  )
  (junction (at 181.61 68.58) (diameter 0) (color 0 0 0 0)
    (uuid d04609a5-dda0-4859-95b5-7b9c98ee48d6)
  )
  (junction (at 105.41 113.03) (diameter 0) (color 0 0 0 0)
    (uuid d1a31c8e-2a4e-473c-85cf-77f039549544)
  )
  (junction (at 120.65 130.81) (diameter 0) (color 0 0 0 0)
    (uuid de43a907-7986-43a1-85df-813a5b950da3)
  )
  (junction (at 138.43 140.97) (diameter 0) (color 0 0 0 0)
    (uuid df689fde-5163-400f-8865-2f685726ded9)
  )
  (junction (at 152.4 67.31) (diameter 0) (color 0 0 0 0)
    (uuid e0ae035f-3c19-4c84-8f48-c368909f211f)
  )
  (junction (at 53.34 134.62) (diameter 0) (color 0 0 0 0)
    (uuid e0d4f22f-6695-4aba-be66-0404c412883f)
  )
  (junction (at 109.22 80.01) (diameter 0) (color 0 0 0 0)
    (uuid e354d1a0-bc02-4502-986b-30666a66a9b1)
  )
  (junction (at 190.5 71.12) (diameter 0) (color 0 0 0 0)
    (uuid e98b420c-006d-4677-8a40-42adba797a66)
  )
  (junction (at 142.24 139.7) (diameter 0) (color 0 0 0 0)
    (uuid e99b2455-6317-4d3a-90e2-7596a3a7b6ec)
  )
  (junction (at 113.03 78.74) (diameter 0) (color 0 0 0 0)
    (uuid ec99da8a-ed80-4172-9b0e-c3433a0641fd)
  )
  (junction (at 215.9 100.33) (diameter 0) (color 0 0 0 0)
    (uuid ece535e5-4fc3-4a25-aa21-10feba6cc504)
  )
  (junction (at 162.56 134.62) (diameter 0) (color 0 0 0 0)
    (uuid ef0448bc-4f6c-4a2b-b2c1-bcb39e98b287)
  )
  (junction (at 135.89 63.5) (diameter 0) (color 0 0 0 0)
    (uuid f290a548-1f9c-4f0a-9465-388cd960e870)
  )
  (junction (at 123.19 132.08) (diameter 0) (color 0 0 0 0)
    (uuid f3434646-3f1c-47a6-a46a-5a793de1a675)
  )
  (junction (at 123.19 67.31) (diameter 0) (color 0 0 0 0)
    (uuid f521aa2a-70ea-4bfa-a5f8-9973ac3bae4d)
  )
  (junction (at 125.73 69.85) (diameter 0) (color 0 0 0 0)
    (uuid f55b2315-ffcf-45cb-b8d5-dd0439b81933)
  )
  (junction (at 179.07 67.31) (diameter 0) (color 0 0 0 0)
    (uuid fbc5bfad-105f-41f4-afe7-005c43564954)
  )
  (junction (at 142.24 64.77) (diameter 0) (color 0 0 0 0)
    (uuid ff4bc895-62b8-4a28-a60d-2b935f5d17d0)
  )
  (junction (at 125.73 68.58) (diameter 0) (color 0 0 0 0)
    (uuid ff8c2871-7c9b-4de3-baec-30db09fd1a6f)
  )

  (wire (pts (xy 119.38 60.96) (xy 123.19 60.96))
    (stroke (width 0) (type default) (color 0 0 0 0))
    (uuid 033cb8a0-f785-4a7a-9124-745e0c035c18)
  )
  (wire (pts (xy 179.07 95.25) (xy 179.07 97.79))
    (stroke (width 0) (type default) (color 0 0 0 0))
    (uuid 03470583-2232-4b86-bf64-2b41cf6830fa)
  )
  (wire (pts (xy 134.62 55.88) (xy 127 55.88))
    (stroke (width 0) (type default) (color 0 0 0 0))
    (uuid 04c05bc0-3dda-43a6-af25-09f950940dd8)
  )
  (wire (pts (xy 149.86 66.04) (xy 120.65 66.04))
    (stroke (width 0) (type default) (color 0 0 0 0))
    (uuid 05a14597-8155-4f2f-a215-de004c39f54d)
  )
  (wire (pts (xy 123.19 60.96) (xy 123.19 67.31))
    (stroke (width 0) (type default) (color 0 0 0 0))
    (uuid 05f67689-b87d-4a73-ba19-8cfc59729f07)
  )
  (wire (pts (xy 179.07 67.31) (xy 179.07 72.39))
    (stroke (width 0) (type default) (color 0 0 0 0))
    (uuid 06305251-e378-4891-9146-8f07d688bb2e)
  )
  (wire (pts (xy 176.53 66.04) (xy 149.86 66.04))
    (stroke (width 0) (type default) (color 0 0 0 0))
    (uuid 074815e6-91a0-4090-a290-29b93ecec84f)
  )
  (wire (pts (xy 123.19 71.12) (xy 92.71 71.12))
    (stroke (width 0) (type default) (color 0 0 0 0))
    (uuid 086594ea-2541-4bd8-a558-78942abcd4c0)
  )
  (wire (pts (xy 135.89 81.28) (xy 133.35 81.28))
    (stroke (width 0) (type default) (color 0 0 0 0))
    (uuid 08bad1ef-7879-432e-92ea-cae26bc2291c)
  )
  (wire (pts (xy 179.07 105.41) (xy 179.07 107.95))
    (stroke (width 0) (type default) (color 0 0 0 0))
    (uuid 0a75f060-9ad0-4ebe-ae07-34bbdb9c610f)
  )
  (wire (pts (xy 133.35 100.33) (xy 162.56 100.33))
    (stroke (width 0) (type default) (color 0 0 0 0))
    (uuid 0b2c0cb9-1971-415f-8b99-11d474dae28d)
  )
  (wire (pts (xy 138.43 140.97) (xy 165.1 140.97))
    (stroke (width 0) (type default) (color 0 0 0 0))
    (uuid 0bf9a605-1ed3-48a5-aa63-5e0c16fb660e)
  )
  (wire (pts (xy 162.56 69.85) (xy 162.56 81.28))
    (stroke (width 0) (type default) (color 0 0 0 0))
    (uuid 0c7a4b18-4f87-4530-9664-42ea05ddb3cf)
  )
  (wire (pts (xy 189.23 121.92) (xy 189.23 134.62))
    (stroke (width 0) (type default) (color 0 0 0 0))
    (uuid 0da0b0c5-5d6c-4977-8d60-d7b14bc6367d)
  )
  (wire (pts (xy 120.65 93.98) (xy 120.65 101.6))
    (stroke (width 0) (type default) (color 0 0 0 0))
    (uuid 0f744dc3-8721-49cc-9c6c-bbc875ac49de)
  )
  (wire (pts (xy 149.86 66.04) (xy 149.86 73.66))
    (stroke (width 0) (type default) (color 0 0 0 0))
    (uuid 117f6fce-4f6e-4649-a84d-010b44e16fb7)
  )
  (wire (pts (xy 181.61 68.58) (xy 208.28 68.58))
    (stroke (width 0) (type default) (color 0 0 0 0))
    (uuid 11abb483-9dcd-4c33-a370-d7ce03952760)
  )
  (wire (pts (xy 53.34 140.97) (xy 53.34 148.59))
    (stroke (width 0) (type default) (color 0 0 0 0))
    (uuid 12c130ae-b841-48d1-83ec-6fa0133875b8)
  )
  (wire (pts (xy 109.22 124.46) (xy 96.52 124.46))
    (stroke (width 0) (type default) (color 0 0 0 0))
    (uuid 12ffb73f-62d0-42c1-8932-5ebb64fff657)
  )
  (wire (pts (xy 109.22 86.36) (xy 109.22 80.01))
    (stroke (width 0) (type default) (color 0 0 0 0))
    (uuid 13603ae1-712a-48d0-9b7f-9476417e67d2)
  )
  (wire (pts (xy 134.62 83.82) (xy 134.62 119.38))
    (stroke (width 0) (type default) (color 0 0 0 0))
    (uuid 160deb35-a0f6-4e92-8900-29c92dc5c1d8)
  )
  (wire (pts (xy 142.24 121.92) (xy 142.24 139.7))
    (stroke (width 0) (type default) (color 0 0 0 0))
    (uuid 16165d61-b1b6-457b-9112-2a44bf6cf509)
  )
  (wire (pts (xy 168.91 64.77) (xy 195.58 64.77))
    (stroke (width 0) (type default) (color 0 0 0 0))
    (uuid 169f70c7-a5a0-443e-a23e-d95b9745d0f6)
  )
  (wire (pts (xy 133.35 124.46) (xy 133.35 134.62))
    (stroke (width 0) (type default) (color 0 0 0 0))
    (uuid 196b4d12-8e07-4703-8fe8-4da98394f0b6)
  )
  (wire (pts (xy 205.74 95.25) (xy 205.74 99.06))
    (stroke (width 0) (type default) (color 0 0 0 0))
    (uuid 19e307b0-9d00-403a-8bb3-c92eee75b593)
  )
  (wire (pts (xy 205.74 67.31) (xy 179.07 67.31))
    (stroke (width 0) (type default) (color 0 0 0 0))
    (uuid 1b35ceba-fc0c-497f-b452-c9ae99678733)
  )
  (wire (pts (xy 176.53 129.54) (xy 176.53 138.43))
    (stroke (width 0) (type default) (color 0 0 0 0))
    (uuid 1b9d78c4-3203-44e3-958f-425f2e4ec9ec)
  )
  (wire (pts (xy 205.74 130.81) (xy 205.74 137.16))
    (stroke (width 0) (type default) (color 0 0 0 0))
    (uuid 1c1eddbd-710f-43b1-b47c-5e4765a94756)
  )
  (wire (pts (xy 114.3 110.49) (xy 114.3 107.95))
    (stroke (width 0) (type default) (color 0 0 0 0))
    (uuid 1c5ea616-a39d-40ac-92a4-ccfd992fdc70)
  )
  (wire (pts (xy 133.35 69.85) (xy 133.35 57.15))
    (stroke (width 0) (type default) (color 0 0 0 0))
    (uuid 1c6e452a-3519-4b92-98f5-9c74f0717054)
  )
  (wire (pts (xy 133.35 134.62) (xy 162.56 134.62))
    (stroke (width 0) (type default) (color 0 0 0 0))
    (uuid 1d9bf0eb-4cb4-4316-98f4-e0581ba1b289)
  )
  (wire (pts (xy 125.73 69.85) (xy 125.73 68.58))
    (stroke (width 0) (type default) (color 0 0 0 0))
    (uuid 1da291cc-3aa5-4632-8f99-7dae246a7f56)
  )
  (wire (pts (xy 125.73 93.98) (xy 125.73 102.87))
    (stroke (width 0) (type default) (color 0 0 0 0))
    (uuid 1de9dde9-f32f-45ab-be8b-8ff4403cbd31)
  )
  (wire (pts (xy 190.5 83.82) (xy 190.5 119.38))
    (stroke (width 0) (type default) (color 0 0 0 0))
    (uuid 2054b6b3-5651-4b1d-8d76-ae66606df61d)
  )
  (wire (pts (xy 208.28 129.54) (xy 208.28 135.89))
    (stroke (width 0) (type default) (color 0 0 0 0))
    (uuid 2168b05f-acf6-44d7-a1f6-3db3d25175d7)
  )
  (wire (pts (xy 120.65 72.39) (xy 120.65 73.66))
    (stroke (width 0) (type default) (color 0 0 0 0))
    (uuid 2362ab0b-f0e6-45cd-ae55-35e0b04223a0)
  )
  (wire (pts (xy 125.73 58.42) (xy 121.92 58.42))
    (stroke (width 0) (type default) (color 0 0 0 0))
    (uuid 238b4f36-a253-431c-a93e-34af7da002ac)
  )
  (wire (pts (xy 120.65 129.54) (xy 120.65 130.81))
    (stroke (width 0) (type default) (color 0 0 0 0))
    (uuid 24235b8f-6a6a-4b6a-9ea7-d1902865a5fc)
  )
  (wire (pts (xy 149.86 93.98) (xy 149.86 101.6))
    (stroke (width 0) (type default) (color 0 0 0 0))
    (uuid 244d0622-2f04-4395-b0ce-fa7cdc47da8f)
  )
  (wire (pts (xy 133.35 69.85) (xy 162.56 69.85))
    (stroke (width 0) (type default) (color 0 0 0 0))
    (uuid 28341e20-fb49-4b1f-918f-f121ca9dc24b)
  )
  (wire (pts (xy 149.86 138.43) (xy 176.53 138.43))
    (stroke (width 0) (type default) (color 0 0 0 0))
    (uuid 2a80e520-c5bd-402d-9b26-1a7536775a36)
  )
  (wire (pts (xy 176.53 101.6) (xy 203.2 101.6))
    (stroke (width 0) (type default) (color 0 0 0 0))
    (uuid 2c7a209c-0737-4684-96db-c09c9b3ed448)
  )
  (wire (pts (xy 104.14 97.79) (xy 179.07 97.79))
    (stroke (width 0) (type default) (color 0 0 0 0))
    (uuid 2d6614eb-bffa-4bcf-95c6-23d2c0802bc5)
  )
  (wire (pts (xy 134.62 71.12) (xy 134.62 55.88))
    (stroke (width 0) (type default) (color 0 0 0 0))
    (uuid 2e44eb9d-5214-4281-b589-6f1d5d809dae)
  )
  (wire (pts (xy 107.95 59.69) (xy 129.54 59.69))
    (stroke (width 0) (type default) (color 0 0 0 0))
    (uuid 2ede9c4e-2cb4-4cc6-be11-9369562144c1)
  )
  (wire (pts (xy 162.56 69.85) (xy 189.23 69.85))
    (stroke (width 0) (type default) (color 0 0 0 0))
    (uuid 2f4d6b2b-8ccf-4f14-8b63-a283c9158275)
  )
  (wire (pts (xy 152.4 67.31) (xy 152.4 72.39))
    (stroke (width 0) (type default) (color 0 0 0 0))
    (uuid 3070e453-5a48-4337-bc8a-aaea9f0903c4)
  )
  (wire (pts (xy 152.4 106.68) (xy 152.4 107.95))
    (stroke (width 0) (type default) (color 0 0 0 0))
    (uuid 308921f5-5212-48d1-b87d-a5e65e963425)
  )
  (wire (pts (xy 113.03 121.92) (xy 113.03 125.73))
    (stroke (width 0) (type default) (color 0 0 0 0))
    (uuid 30e6816a-934e-4ead-9b92-dcd91099f61d)
  )
  (wire (pts (xy 113.03 78.74) (xy 113.03 64.77))
    (stroke (width 0) (type default) (color 0 0 0 0))
    (uuid 322ce47b-b261-4cc9-9ac9-b731fc171ab9)
  )
  (wire (pts (xy 154.94 102.87) (xy 154.94 109.22))
    (stroke (width 0) (type default) (color 0 0 0 0))
    (uuid 32c25dd0-46bd-40ce-a824-a7705bb3c6a2)
  )
  (wire (pts (xy 208.28 93.98) (xy 208.28 102.87))
    (stroke (width 0) (type default) (color 0 0 0 0))
    (uuid 35a12103-805d-4405-8e54-4107a0ca3f53)
  )
  (wire (pts (xy 190.5 71.12) (xy 217.17 71.12))
    (stroke (width 0) (type default) (color 0 0 0 0))
    (uuid 38f6964d-c259-4242-95b5-b9af9bf14d6c)
  )
  (wire (pts (xy 181.61 102.87) (xy 208.28 102.87))
    (stroke (width 0) (type default) (color 0 0 0 0))
    (uuid 39dd521d-c0d3-4dc3-9f04-954364f19b5c)
  )
  (wire (pts (xy 152.4 67.31) (xy 123.19 67.31))
    (stroke (width 0) (type default) (color 0 0 0 0))
    (uuid 39f4a93e-a66f-49d9-9489-04177f4bdb50)
  )
  (wire (pts (xy 120.65 66.04) (xy 120.65 72.39))
    (stroke (width 0) (type default) (color 0 0 0 0))
    (uuid 3c6e5582-ed52-4848-b93d-0595f2132de1)
  )
  (wire (pts (xy 208.28 68.58) (xy 208.28 73.66))
    (stroke (width 0) (type default) (color 0 0 0 0))
    (uuid 3de3899f-ecd3-4a2a-a1ab-87cef4e94650)
  )
  (wire (pts (xy 132.08 54.61) (xy 132.08 53.34))
    (stroke (width 0) (type default) (color 0 0 0 0))
    (uuid 3fec1831-49fe-435d-a6eb-ba520e55f450)
  )
  (wire (pts (xy 109.22 140.97) (xy 138.43 140.97))
    (stroke (width 0) (type default) (color 0 0 0 0))
    (uuid 429d8298-5e79-4d7a-bf0d-7cf25fa82a32)
  )
  (wire (pts (xy 154.94 93.98) (xy 154.94 102.87))
    (stroke (width 0) (type default) (color 0 0 0 0))
    (uuid 42e27ade-eeba-4263-a787-39f108a3f5bf)
  )
  (wire (pts (xy 191.77 116.84) (xy 195.58 116.84))
    (stroke (width 0) (type default) (color 0 0 0 0))
    (uuid 457aad0d-626d-4ee5-8691-0f5a203e44f3)
  )
  (wire (pts (xy 179.07 67.31) (xy 152.4 67.31))
    (stroke (width 0) (type default) (color 0 0 0 0))
    (uuid 476016a1-85a2-490a-9e22-631280b45f0e)
  )
  (wire (pts (xy 203.2 66.04) (xy 176.53 66.04))
    (stroke (width 0) (type default) (color 0 0 0 0))
    (uuid 4887c61f-5eee-47ed-8575-94bf50340195)
  )
  (wire (pts (xy 208.28 135.89) (xy 181.61 135.89))
    (stroke (width 0) (type default) (color 0 0 0 0))
    (uuid 49371403-6674-4834-91b2-f03f0da5c9df)
  )
  (wire (pts (xy 124.46 57.15) (xy 124.46 53.34))
    (stroke (width 0) (type default) (color 0 0 0 0))
    (uuid 4bee3b93-9a25-4a62-bc3b-7a216b6aba9d)
  )
  (wire (pts (xy 134.62 71.12) (xy 134.62 83.82))
    (stroke (width 0) (type default) (color 0 0 0 0))
    (uuid 4c0a6173-3bb5-488a-ae98-333b4befcac8)
  )
  (wire (pts (xy 113.03 96.52) (xy 152.4 96.52))
    (stroke (width 0) (type default) (color 0 0 0 0))
    (uuid 4c3f0484-35fb-40b3-9c12-239ebdd949e5)
  )
  (wire (pts (xy 113.03 106.68) (xy 152.4 106.68))
    (stroke (width 0) (type default) (color 0 0 0 0))
    (uuid 4c6335cd-12b0-4110-b591-a416d64018c7)
  )
  (wire (pts (xy 53.34 128.27) (xy 53.34 134.62))
    (stroke (width 0) (type default) (color 0 0 0 0))
    (uuid 4fb300a9-90eb-49cb-8fbc-c40ca276a9a5)
  )
  (wire (pts (xy 121.92 58.42) (xy 121.92 53.34))
    (stroke (width 0) (type default) (color 0 0 0 0))
    (uuid 5193b92c-0f95-414f-9c12-4288fbf1289f)
  )
  (wire (pts (xy 190.5 71.12) (xy 190.5 83.82))
    (stroke (width 0) (type default) (color 0 0 0 0))
    (uuid 519c04a5-b809-4083-bdcb-581e5798f389)
  )
  (wire (pts (xy 208.28 102.87) (xy 208.28 109.22))
    (stroke (width 0) (type default) (color 0 0 0 0))
    (uuid 53c0fa19-4857-45ef-a0b0-d2d75f95cdd8)
  )
  (wire (pts (xy 120.65 130.81) (xy 93.98 130.81))
    (stroke (width 0) (type default) (color 0 0 0 0))
    (uuid 53d290a8-b212-4513-90cb-06afc49296a0)
  )
  (wire (pts (xy 104.14 102.87) (xy 111.76 102.87))
    (stroke (width 0) (type default) (color 0 0 0 0))
    (uuid 5467d68a-a197-4fb0-ba4f-7c59ac89c187)
  )
  (wire (pts (xy 189.23 86.36) (xy 189.23 100.33))
    (stroke (width 0) (type default) (color 0 0 0 0))
    (uuid 54b537a8-62a1-4be1-9498-f1c4ca3d7436)
  )
  (wire (pts (xy 123.19 132.08) (xy 123.19 130.81))
    (stroke (width 0) (type default) (color 0 0 0 0))
    (uuid 5516558a-0e9a-45b2-b088-49662b07da26)
  )
  (wire (pts (xy 133.35 86.36) (xy 133.35 100.33))
    (stroke (width 0) (type default) (color 0 0 0 0))
    (uuid 554e6b91-842b-4b82-acea-8be18d8f5bac)
  )
  (wire (pts (xy 205.74 99.06) (xy 111.76 99.06))
    (stroke (width 0) (type default) (color 0 0 0 0))
    (uuid 55abb9fe-9cbe-43e6-ace1-61fdae65126e)
  )
  (wire (pts (xy 114.3 107.95) (xy 123.19 107.95))
    (stroke (width 0) (type default) (color 0 0 0 0))
    (uuid 56c12040-eff0-4d0c-861f-a536ce2e9e88)
  )
  (wire (pts (xy 107.95 59.69) (xy 107.95 101.6))
    (stroke (width 0) (type default) (color 0 0 0 0))
    (uuid 5b484aaf-46b1-4f93-a082-ea4e63e72dd8)
  )
  (wire (pts (xy 203.2 73.66) (xy 203.2 66.04))
    (stroke (width 0) (type default) (color 0 0 0 0))
    (uuid 5d4cd7a9-9d01-410d-9083-4554f6297a52)
  )
  (wire (pts (xy 96.52 124.46) (xy 96.52 80.01))
    (stroke (width 0) (type default) (color 0 0 0 0))
    (uuid 5d7ba739-ec09-4eb2-88de-f93b63931246)
  )
  (wire (pts (xy 189.23 100.33) (xy 189.23 116.84))
    (stroke (width 0) (type default) (color 0 0 0 0))
    (uuid 5d9748b0-9ada-4af4-8128-cf3ea6000962)
  )
  (wire (pts (xy 189.23 134.62) (xy 162.56 134.62))
    (stroke (width 0) (type default) (color 0 0 0 0))
    (uuid 5daee066-1855-4535-b7df-24f9ec7c3328)
  )
  (wire (pts (xy 195.58 139.7) (xy 195.58 121.92))
    (stroke (width 0) (type default) (color 0 0 0 0))
    (uuid 5eaefe45-4377-4f72-b5ff-c30dbfcff29f)
  )
  (wire (pts (xy 120.65 101.6) (xy 107.95 101.6))
    (stroke (width 0) (type default) (color 0 0 0 0))
    (uuid 5eb1f7ee-9a6a-4ec6-9280-6b1b89d7fdfb)
  )
  (wire (pts (xy 205.74 137.16) (xy 179.07 137.16))
    (stroke (width 0) (type default) (color 0 0 0 0))
    (uuid 609c70f4-1479-4ca4-a93e-8230d97706fb)
  )
  (wire (pts (xy 53.34 134.62) (xy 53.34 140.97))
    (stroke (width 0) (type default) (color 0 0 0 0))
    (uuid 62174918-cb4a-43ea-9016-56620c8e7a6d)
  )
  (wire (pts (xy 95.25 78.74) (xy 113.03 78.74))
    (stroke (width 0) (type default) (color 0 0 0 0))
    (uuid 66462769-23b4-4752-8c12-21d728be199b)
  )
  (wire (pts (xy 133.35 100.33) (xy 133.35 116.84))
    (stroke (width 0) (type default) (color 0 0 0 0))
    (uuid 6c40c0fe-1748-458d-bd29-8f24d16f7097)
  )
  (wire (pts (xy 114.3 95.25) (xy 114.3 92.71))
    (stroke (width 0) (type default) (color 0 0 0 0))
    (uuid 6c499f23-5677-483d-b56c-f6cb8af766ab)
  )
  (wire (pts (xy 113.03 139.7) (xy 142.24 139.7))
    (stroke (width 0) (type default) (color 0 0 0 0))
    (uuid 6d7c2e86-d608-4fc0-bcf7-35c71063fe44)
  )
  (wire (pts (xy 152.4 130.81) (xy 152.4 137.16))
    (stroke (width 0) (type default) (color 0 0 0 0))
    (uuid 720775db-3021-4d2f-ad19-0d71c433bbc1)
  )
  (wire (pts (xy 149.86 129.54) (xy 149.86 138.43))
    (stroke (width 0) (type default) (color 0 0 0 0))
    (uuid 7380ac1d-fc0a-40cc-ac6d-59fcc4b4c293)
  )
  (wire (pts (xy 149.86 101.6) (xy 149.86 109.22))
    (stroke (width 0) (type default) (color 0 0 0 0))
    (uuid 744ca325-0072-47d4-b749-801bb8d1a28d)
  )
  (wire (pts (xy 134.62 71.12) (xy 163.83 71.12))
    (stroke (width 0) (type default) (color 0 0 0 0))
    (uuid 76228c87-6eaf-40df-b82d-cd476ff79bab)
  )
  (wire (pts (xy 133.35 121.92) (xy 133.35 124.46))
    (stroke (width 0) (type default) (color 0 0 0 0))
    (uuid 796618ff-adc1-4daf-832e-9d9cc9a2585a)
  )
  (wire (pts (xy 191.77 140.97) (xy 191.77 116.84))
    (stroke (width 0) (type default) (color 0 0 0 0))
    (uuid 7ab6fae9-56c8-4516-b817-e0c8cea9f716)
  )
  (wire (pts (xy 162.56 134.62) (xy 162.56 121.92))
    (stroke (width 0) (type default) (color 0 0 0 0))
    (uuid 7cd7460a-de4d-4e2d-ab86-f2bbbcecffa6)
  )
  (wire (pts (xy 120.65 130.81) (xy 120.65 138.43))
    (stroke (width 0) (type default) (color 0 0 0 0))
    (uuid 7cea92c9-9703-4eba-a1eb-fed08832ec20)
  )
  (wire (pts (xy 123.19 71.12) (xy 123.19 72.39))
    (stroke (width 0) (type default) (color 0 0 0 0))
    (uuid 7e881b05-98b1-4290-99fa-d895271485f2)
  )
  (wire (pts (xy 215.9 86.36) (xy 215.9 100.33))
    (stroke (width 0) (type default) (color 0 0 0 0))
    (uuid 7f0219d7-f801-4bc0-9074-00af159f1f32)
  )
  (wire (pts (xy 123.19 137.16) (xy 123.19 132.08))
    (stroke (width 0) (type default) (color 0 0 0 0))
    (uuid 8174ff25-f2f4-4079-ac82-9d147c6420b9)
  )
  (wire (pts (xy 181.61 93.98) (xy 181.61 102.87))
    (stroke (width 0) (type default) (color 0 0 0 0))
    (uuid 826883eb-791a-4f94-b3a6-d07e9c71fba1)
  )
  (wire (pts (xy 113.03 86.36) (xy 109.22 86.36))
    (stroke (width 0) (type default) (color 0 0 0 0))
    (uuid 8332abe0-513c-4c6f-9236-05683cae4596)
  )
  (wire (pts (xy 138.43 116.84) (xy 142.24 116.84))
    (stroke (width 0) (type default) (color 0 0 0 0))
    (uuid 833632e3-89a5-48d8-98b6-547be90ad674)
  )
  (wire (pts (xy 162.56 100.33) (xy 189.23 100.33))
    (stroke (width 0) (type default) (color 0 0 0 0))
    (uuid 86dffbef-4b48-463a-9a3d-e6af423c0b62)
  )
  (wire (pts (xy 217.17 71.12) (xy 217.17 83.82))
    (stroke (width 0) (type default) (color 0 0 0 0))
    (uuid 886549e8-81c2-4c47-8464-9e4afcaa7ca4)
  )
  (wire (pts (xy 125.73 133.35) (xy 91.44 133.35))
    (stroke (width 0) (type default) (color 0 0 0 0))
    (uuid 89418c64-83aa-43cf-af96-a0ed16e8498f)
  )
  (wire (pts (xy 114.3 53.34) (xy 114.3 64.77))
    (stroke (width 0) (type default) (color 0 0 0 0))
    (uuid 89dba8ed-6d52-4248-8ebf-04e6c6c88d41)
  )
  (wire (pts (xy 165.1 63.5) (xy 191.77 63.5))
    (stroke (width 0) (type default) (color 0 0 0 0))
    (uuid 8a23bcdb-c019-4bd7-82a4-b9066bcb3aba)
  )
  (wire (pts (xy 93.98 72.39) (xy 120.65 72.39))
    (stroke (width 0) (type default) (color 0 0 0 0))
    (uuid 8a4c24a3-c62b-431a-82c4-21c1528bd47f)
  )
  (wire (pts (xy 165.1 63.5) (xy 165.1 86.36))
    (stroke (width 0) (type default) (color 0 0 0 0))
    (uuid 8ac7fb36-f939-44c0-b12d-167c3839b5d7)
  )
  (wire (pts (xy 138.43 63.5) (xy 138.43 86.36))
    (stroke (width 0) (type default) (color 0 0 0 0))
    (uuid 8c4bbe2b-6fb3-4548-8dd3-0f1711d4f6b1)
  )
  (wire (pts (xy 105.41 120.65) (xy 106.68 120.65))
    (stroke (width 0) (type default) (color 0 0 0 0))
    (uuid 8cae3b2b-beb4-413b-9f2d-780b6d49cae1)
  )
  (wire (pts (xy 189.23 69.85) (xy 215.9 69.85))
    (stroke (width 0) (type default) (color 0 0 0 0))
    (uuid 8ffd1010-e240-4259-9498-37bf8e52f29e)
  )
  (wire (pts (xy 181.61 135.89) (xy 154.94 135.89))
    (stroke (width 0) (type default) (color 0 0 0 0))
    (uuid 90fdb165-1708-491a-9fd1-cc0451817176)
  )
  (wire (pts (xy 149.86 101.6) (xy 176.53 101.6))
    (stroke (width 0) (type default) (color 0 0 0 0))
    (uuid 92eb945d-261b-4129-876b-6425a392ebe4)
  )
  (wire (pts (xy 215.9 134.62) (xy 189.23 134.62))
    (stroke (width 0) (type default) (color 0 0 0 0))
    (uuid 93b90371-971d-4766-a673-0ae183e0ebf1)
  )
  (wire (pts (xy 165.1 86.36) (xy 168.91 86.36))
    (stroke (width 0) (type default) (color 0 0 0 0))
    (uuid 947d6c7d-dc19-4856-a158-49558a98847f)
  )
  (wire (pts (xy 191.77 63.5) (xy 191.77 86.36))
    (stroke (width 0) (type default) (color 0 0 0 0))
    (uuid 9685dfb3-079c-44b1-b353-b4be89013d60)
  )
  (wire (pts (xy 154.94 68.58) (xy 181.61 68.58))
    (stroke (width 0) (type default) (color 0 0 0 0))
    (uuid 97af4b27-e566-489d-b53d-b40c94681afb)
  )
  (wire (pts (xy 125.73 133.35) (xy 125.73 135.89))
    (stroke (width 0) (type default) (color 0 0 0 0))
    (uuid 99c24618-7c42-44ff-8b2e-8907a5455d99)
  )
  (wire (pts (xy 133.35 57.15) (xy 124.46 57.15))
    (stroke (width 0) (type default) (color 0 0 0 0))
    (uuid 9b4b514c-b288-40ab-af4d-fb8827371f01)
  )
  (wire (pts (xy 165.1 116.84) (xy 168.91 116.84))
    (stroke (width 0) (type default) (color 0 0 0 0))
    (uuid 9bdc1c4a-b5e8-4104-8343-beab0b766ae2)
  )
  (wire (pts (xy 133.35 124.46) (xy 135.89 124.46))
    (stroke (width 0) (type default) (color 0 0 0 0))
    (uuid 9c13bc04-6c55-4fe1-abf9-4cf52a065eec)
  )
  (wire (pts (xy 176.53 66.04) (xy 176.53 73.66))
    (stroke (width 0) (type default) (color 0 0 0 0))
    (uuid 9c27bafe-dc9a-4fc8-9304-3713da742e75)
  )
  (wire (pts (xy 215.9 100.33) (xy 215.9 116.84))
    (stroke (width 0) (type default) (color 0 0 0 0))
    (uuid 9d3ccc3f-3b98-4650-998a-594b38c6aef7)
  )
  (wire (pts (xy 125.73 73.66) (xy 125.73 69.85))
    (stroke (width 0) (type default) (color 0 0 0 0))
    (uuid 9d6f01bf-507b-4b70-82a7-182a04da9e3f)
  )
  (wire (pts (xy 163.83 71.12) (xy 190.5 71.12))
    (stroke (width 0) (type default) (color 0 0 0 0))
    (uuid 9dd98557-9d35-4410-bb42-c60c8569f6b4)
  )
  (wire (pts (xy 123.19 67.31) (xy 123.19 71.12))
    (stroke (width 0) (type default) (color 0 0 0 0))
    (uuid 9e8cf55f-aa42-463b-a91a-de04527fe165)
  )
  (wire (pts (xy 163.83 83.82) (xy 163.83 119.38))
    (stroke (width 0) (type default) (color 0 0 0 0))
    (uuid 9f9d4e75-460b-4229-b546-57433be75d08)
  )
  (wire (pts (xy 113.03 125.73) (xy 95.25 125.73))
    (stroke (width 0) (type default) (color 0 0 0 0))
    (uuid 9fa9f26f-181c-4272-9534-03061d2c9314)
  )
  (wire (pts (xy 111.76 102.87) (xy 111.76 104.14))
    (stroke (width 0) (type default) (color 0 0 0 0))
    (uuid 9fbfb825-a6e0-4204-ba89-ecec7e2dcf5c)
  )
  (wire (pts (xy 154.94 102.87) (xy 181.61 102.87))
    (stroke (width 0) (type default) (color 0 0 0 0))
    (uuid a1434e3b-aba4-410a-858d-823582b176a7)
  )
  (wire (pts (xy 165.1 140.97) (xy 191.77 140.97))
    (stroke (width 0) (type default) (color 0 0 0 0))
    (uuid a1aad2b7-d537-4ebe-9600-9849a0eda02a)
  )
  (wire (pts (xy 135.89 124.46) (xy 135.89 81.28))
    (stroke (width 0) (type default) (color 0 0 0 0))
    (uuid a41c656b-c1d5-4600-8933-88a1e064dd0d)
  )
  (wire (pts (xy 113.03 64.77) (xy 114.3 64.77))
    (stroke (width 0) (type default) (color 0 0 0 0))
    (uuid a4ad2a42-7fbf-4229-aa42-a4b8c66f5d7d)
  )
  (wire (pts (xy 176.53 93.98) (xy 176.53 101.6))
    (stroke (width 0) (type default) (color 0 0 0 0))
    (uuid a5424812-224a-4644-80cd-92ea92f4e925)
  )
  (wire (pts (xy 215.9 121.92) (xy 215.9 134.62))
    (stroke (width 0) (type default) (color 0 0 0 0))
    (uuid a54460d0-1b47-4c4a-89eb-2ee3a9226f14)
  )
  (wire (pts (xy 203.2 101.6) (xy 203.2 109.22))
    (stroke (width 0) (type default) (color 0 0 0 0))
    (uuid a679272f-a3f0-45fb-87aa-a0b2b5803612)
  )
  (wire (pts (xy 189.23 69.85) (xy 189.23 81.28))
    (stroke (width 0) (type default) (color 0 0 0 0))
    (uuid a94c856f-aa13-433f-9f44-bd4724bec9ed)
  )
  (wire (pts (xy 135.89 63.5) (xy 135.89 54.61))
    (stroke (width 0) (type default) (color 0 0 0 0))
    (uuid ab8bc8da-9fb2-454e-9c07-a665edb35426)
  )
  (wire (pts (xy 165.1 140.97) (xy 165.1 116.84))
    (stroke (width 0) (type default) (color 0 0 0 0))
    (uuid acdf6299-4f0d-45e2-9790-c2e029bf8238)
  )
  (wire (pts (xy 138.43 140.97) (xy 138.43 116.84))
    (stroke (width 0) (type default) (color 0 0 0 0))
    (uuid ad08e5d4-999e-4573-a2c5-ea4aea5fe9da)
  )
  (wire (pts (xy 133.35 81.28) (xy 133.35 69.85))
    (stroke (width 0) (type default) (color 0 0 0 0))
    (uuid af06ce4b-2df5-4288-9410-daa02c29db28)
  )
  (wire (pts (xy 138.43 63.5) (xy 165.1 63.5))
    (stroke (width 0) (type default) (color 0 0 0 0))
    (uuid afa81dbf-1d19-4d13-85d9-6f57cc013431)
  )
  (wire (pts (xy 135.89 63.5) (xy 138.43 63.5))
    (stroke (width 0) (type default) (color 0 0 0 0))
    (uuid b146471c-fbe5-47f5-9d13-b2781f1eec8e)
  )
  (wire (pts (xy 125.73 102.87) (xy 154.94 102.87))
    (stroke (width 0) (type default) (color 0 0 0 0))
    (uuid b1ffd1fd-32ab-4a8c-9cb0-68c64d5846a8)
  )
  (wire (pts (xy 181.61 129.54) (xy 181.61 135.89))
    (stroke (width 0) (type default) (color 0 0 0 0))
    (uuid b298629a-6446-4c5e-b89f-d777a2adc734)
  )
  (wire (pts (xy 109.22 124.46) (xy 109.22 140.97))
    (stroke (width 0) (type default) (color 0 0 0 0))
    (uuid b38839ce-5ed1-4137-8d01-8e29148f2f0d)
  )
  (wire (pts (xy 104.14 113.03) (xy 105.41 113.03))
    (stroke (width 0) (type default) (color 0 0 0 0))
    (uuid b4a60d3d-60f8-4c39-83d6-41d264d588ea)
  )
  (wire (pts (xy 125.73 68.58) (xy 154.94 68.58))
    (stroke (width 0) (type default) (color 0 0 0 0))
    (uuid b4b3542d-81a0-443a-a057-e92e83e673be)
  )
  (wire (pts (xy 53.34 121.92) (xy 53.34 128.27))
    (stroke (width 0) (type default) (color 0 0 0 0))
    (uuid b81b6c23-48d6-47c8-8b80-06a400015433)
  )
  (wire (pts (xy 114.3 92.71) (xy 104.14 92.71))
    (stroke (width 0) (type default) (color 0 0 0 0))
    (uuid b9d7e704-05fd-4e1e-9a19-5200b9526e44)
  )
  (wire (pts (xy 125.73 68.58) (xy 125.73 58.42))
    (stroke (width 0) (type default) (color 0 0 0 0))
    (uuid ba684d7c-206a-4c98-b824-40bb57bcd818)
  )
  (wire (pts (xy 119.38 53.34) (xy 119.38 60.96))
    (stroke (width 0) (type default) (color 0 0 0 0))
    (uuid ba7b530d-9be0-4def-8454-8e16aafbce41)
  )
  (wire (pts (xy 105.41 118.11) (xy 105.41 120.65))
    (stroke (width 0) (type default) (color 0 0 0 0))
    (uuid baaf2abe-ca11-4f41-b615-89f45dde9ada)
  )
  (wire (pts (xy 114.3 64.77) (xy 142.24 64.77))
    (stroke (width 0) (type default) (color 0 0 0 0))
    (uuid bbb56580-aa81-45cb-b1b7-ba0c984ed065)
  )
  (wire (pts (xy 215.9 100.33) (xy 222.25 100.33))
    (stroke (width 0) (type default) (color 0 0 0 0))
    (uuid bbc86d48-5ce4-4ddd-b79b-6c45ad7d510b)
  )
  (wire (pts (xy 189.23 100.33) (xy 215.9 100.33))
    (stroke (width 0) (type default) (color 0 0 0 0))
    (uuid bc2aaecf-ae79-4198-ab1e-39c2988be733)
  )
  (wire (pts (xy 120.65 101.6) (xy 149.86 101.6))
    (stroke (width 0) (type default) (color 0 0 0 0))
    (uuid bd576e5e-f6a8-448a-bb78-4f045c3f1b37)
  )
  (wire (pts (xy 105.41 113.03) (xy 106.68 113.03))
    (stroke (width 0) (type default) (color 0 0 0 0))
    (uuid be8b4fb7-ee86-463c-afe1-5995dabbe4a6)
  )
  (wire (pts (xy 217.17 83.82) (xy 217.17 119.38))
    (stroke (width 0) (type default) (color 0 0 0 0))
    (uuid bea06c88-f6d1-4881-a90f-de290cdec45c)
  )
  (wire (pts (xy 129.54 59.69) (xy 129.54 53.34))
    (stroke (width 0) (type default) (color 0 0 0 0))
    (uuid bee8f0ee-3740-4a43-b70d-e9aa4b364373)
  )
  (wire (pts (xy 176.53 101.6) (xy 176.53 109.22))
    (stroke (width 0) (type default) (color 0 0 0 0))
    (uuid bf2d37ee-0580-41c4-a68d-fd6a44353604)
  )
  (wire (pts (xy 104.14 95.25) (xy 113.03 95.25))
    (stroke (width 0) (type default) (color 0 0 0 0))
    (uuid bfb424f2-8d7e-4d71-b295-e557e237f849)
  )
  (wire (pts (xy 163.83 71.12) (xy 163.83 83.82))
    (stroke (width 0) (type default) (color 0 0 0 0))
    (uuid bfb983d4-33d7-434d-a8de-68d21eefb4ce)
  )
  (wire (pts (xy 125.73 135.89) (xy 154.94 135.89))
    (stroke (width 0) (type default) (color 0 0 0 0))
    (uuid c034b99a-2648-448e-baa6-0eff97e95a31)
  )
  (wire (pts (xy 203.2 93.98) (xy 203.2 101.6))
    (stroke (width 0) (type default) (color 0 0 0 0))
    (uuid c0b69167-0a59-4444-b4cb-8bf56c302e75)
  )
  (wire (pts (xy 195.58 64.77) (xy 195.58 81.28))
    (stroke (width 0) (type default) (color 0 0 0 0))
    (uuid c162194b-67d4-4e41-9f8f-ed2653e0d196)
  )
  (wire (pts (xy 127 55.88) (xy 127 53.34))
    (stroke (width 0) (type default) (color 0 0 0 0))
    (uuid c1815e63-5999-4d25-8dc0-c63ae372e426)
  )
  (wire (pts (xy 179.07 130.81) (xy 179.07 137.16))
    (stroke (width 0) (type default) (color 0 0 0 0))
    (uuid c1dda76a-acc4-4d23-b272-ba16345aa407)
  )
  (wire (pts (xy 113.03 116.84) (xy 109.22 116.84))
    (stroke (width 0) (type default) (color 0 0 0 0))
    (uuid c3294148-c5cf-4dea-85ec-5236abe37d55)
  )
  (wire (pts (xy 123.19 95.25) (xy 114.3 95.25))
    (stroke (width 0) (type default) (color 0 0 0 0))
    (uuid c3f23d07-a72a-42cc-a576-aacd2bbb7961)
  )
  (wire (pts (xy 181.61 102.87) (xy 181.61 109.22))
    (stroke (width 0) (type default) (color 0 0 0 0))
    (uuid c46a482e-bfa4-4ed5-a49f-3179709c39a1)
  )
  (wire (pts (xy 181.61 68.58) (xy 181.61 73.66))
    (stroke (width 0) (type default) (color 0 0 0 0))
    (uuid c48a8f6a-aabd-46bb-b189-6c52e59ce28e)
  )
  (wire (pts (xy 125.73 129.54) (xy 125.73 133.35))
    (stroke (width 0) (type default) (color 0 0 0 0))
    (uuid c5e565c1-0842-4bfc-851a-fbd402286348)
  )
  (wire (pts (xy 113.03 95.25) (xy 113.03 96.52))
    (stroke (width 0) (type default) (color 0 0 0 0))
    (uuid c72fcd80-1de6-44b7-a66e-ef16a209414f)
  )
  (wire (pts (xy 109.22 116.84) (xy 109.22 124.46))
    (stroke (width 0) (type default) (color 0 0 0 0))
    (uuid c7c34d7a-e4e9-4020-9eb2-3f57bf5616f3)
  )
  (wire (pts (xy 215.9 69.85) (xy 215.9 81.28))
    (stroke (width 0) (type default) (color 0 0 0 0))
    (uuid c8433008-0d24-4e18-80ed-1ae1b5db5976)
  )
  (wire (pts (xy 116.84 66.04) (xy 120.65 66.04))
    (stroke (width 0) (type default) (color 0 0 0 0))
    (uuid c8c138fb-3b8c-48e7-8eed-12e7b3c121de)
  )
  (wire (pts (xy 168.91 139.7) (xy 168.91 121.92))
    (stroke (width 0) (type default) (color 0 0 0 0))
    (uuid cb34bf35-7c91-43c2-a28f-65fba630a61e)
  )
  (wire (pts (xy 111.76 104.14) (xy 205.74 104.14))
    (stroke (width 0) (type default) (color 0 0 0 0))
    (uuid cd3851c8-43a7-44ba-a57d-7da51bf4d405)
  )
  (wire (pts (xy 152.4 137.16) (xy 123.19 137.16))
    (stroke (width 0) (type default) (color 0 0 0 0))
    (uuid d076536f-da37-4d8c-8f35-e9649c792465)
  )
  (wire (pts (xy 109.22 63.5) (xy 135.89 63.5))
    (stroke (width 0) (type default) (color 0 0 0 0))
    (uuid d16083c3-7c83-434a-9e65-4483d6829db9)
  )
  (wire (pts (xy 142.24 64.77) (xy 168.91 64.77))
    (stroke (width 0) (type default) (color 0 0 0 0))
    (uuid d18c946f-d9af-4bde-a889-de42a35dba9a)
  )
  (wire (pts (xy 116.84 53.34) (xy 116.84 66.04))
    (stroke (width 0) (type default) (color 0 0 0 0))
    (uuid d32aa816-7aa3-40fe-b15e-acdc5bba6dc2)
  )
  (wire (pts (xy 205.74 72.39) (xy 205.74 67.31))
    (stroke (width 0) (type default) (color 0 0 0 0))
    (uuid d3531ad3-ea7d-429d-956e-ff3da633d95c)
  )
  (wire (pts (xy 95.25 125.73) (xy 95.25 78.74))
    (stroke (width 0) (type default) (color 0 0 0 0))
    (uuid d4a466e6-8a1e-4638-ab95-eadf0a391ad3)
  )
  (wire (pts (xy 154.94 135.89) (xy 154.94 129.54))
    (stroke (width 0) (type default) (color 0 0 0 0))
    (uuid d60ddee3-3685-41f4-9f86-979901131b67)
  )
  (wire (pts (xy 104.14 118.11) (xy 105.41 118.11))
    (stroke (width 0) (type default) (color 0 0 0 0))
    (uuid d6eccd01-f6cc-4807-a0c3-a1489eab9641)
  )
  (wire (pts (xy 138.43 86.36) (xy 142.24 86.36))
    (stroke (width 0) (type default) (color 0 0 0 0))
    (uuid d7278cec-9bf5-40d0-a7e9-73a064c77d8d)
  )
  (wire (pts (xy 93.98 72.39) (xy 93.98 130.81))
    (stroke (width 0) (type default) (color 0 0 0 0))
    (uuid d82b9341-b01b-45fb-ad6e-3becb3fffdfb)
  )
  (wire (pts (xy 120.65 138.43) (xy 149.86 138.43))
    (stroke (width 0) (type default) (color 0 0 0 0))
    (uuid db199a83-944d-41ec-bbed-2b8082a8e54e)
  )
  (wire (pts (xy 104.14 115.57) (xy 105.41 115.57))
    (stroke (width 0) (type default) (color 0 0 0 0))
    (uuid db2a64ee-32a5-4ebe-bcda-fa13dfea83c4)
  )
  (wire (pts (xy 104.14 105.41) (xy 179.07 105.41))
    (stroke (width 0) (type default) (color 0 0 0 0))
    (uuid db2e9df3-5866-477c-b122-58d40133d766)
  )
  (wire (pts (xy 135.89 54.61) (xy 132.08 54.61))
    (stroke (width 0) (type default) (color 0 0 0 0))
    (uuid dc818b6d-85d3-44e5-bc64-794d2473a569)
  )
  (wire (pts (xy 92.71 71.12) (xy 92.71 132.08))
    (stroke (width 0) (type default) (color 0 0 0 0))
    (uuid dcd4b78d-219c-45b8-be13-9686b097509b)
  )
  (wire (pts (xy 168.91 139.7) (xy 195.58 139.7))
    (stroke (width 0) (type default) (color 0 0 0 0))
    (uuid def56ef8-2877-4427-9903-57250c5a3b07)
  )
  (wire (pts (xy 162.56 86.36) (xy 162.56 100.33))
    (stroke (width 0) (type default) (color 0 0 0 0))
    (uuid df2e1f24-b744-41fa-a600-538bf3e9f386)
  )
  (wire (pts (xy 91.44 69.85) (xy 125.73 69.85))
    (stroke (width 0) (type default) (color 0 0 0 0))
    (uuid df4f4040-e068-4ce3-96d0-0cff8393069f)
  )
  (wire (pts (xy 168.91 64.77) (xy 168.91 81.28))
    (stroke (width 0) (type default) (color 0 0 0 0))
    (uuid e005c0e7-6fe6-45fc-9b8c-d6458ada7d94)
  )
  (wire (pts (xy 125.73 102.87) (xy 125.73 109.22))
    (stroke (width 0) (type default) (color 0 0 0 0))
    (uuid e28615f2-7821-4d76-be46-f3030a98c4f0)
  )
  (wire (pts (xy 113.03 125.73) (xy 113.03 139.7))
    (stroke (width 0) (type default) (color 0 0 0 0))
    (uuid e3b225b6-9dd7-4224-bfd0-ec113e04e53e)
  )
  (wire (pts (xy 109.22 80.01) (xy 109.22 63.5))
    (stroke (width 0) (type default) (color 0 0 0 0))
    (uuid e8afce4a-ebb8-4874-a1f4-346211b1e38e)
  )
  (wire (pts (xy 96.52 80.01) (xy 109.22 80.01))
    (stroke (width 0) (type default) (color 0 0 0 0))
    (uuid eaaff8d9-f32f-4e04-b6ed-1ce44c33cc75)
  )
  (wire (pts (xy 113.03 107.95) (xy 113.03 106.68))
    (stroke (width 0) (type default) (color 0 0 0 0))
    (uuid eb245694-5d4a-4580-b58e-31acf2bba517)
  )
  (wire (pts (xy 152.4 95.25) (xy 152.4 96.52))
    (stroke (width 0) (type default) (color 0 0 0 0))
    (uuid eba43cf1-6d26-4220-8888-7152819486ce)
  )
  (wire (pts (xy 142.24 64.77) (xy 142.24 81.28))
    (stroke (width 0) (type default) (color 0 0 0 0))
    (uuid ec0769d5-8342-4541-99ef-679eace61bff)
  )
  (wire (pts (xy 91.44 133.35) (xy 91.44 69.85))
    (stroke (width 0) (type default) (color 0 0 0 0))
    (uuid ec455f14-8610-4dde-a4b5-a166f9fea2dc)
  )
  (wire (pts (xy 111.76 100.33) (xy 104.14 100.33))
    (stroke (width 0) (type default) (color 0 0 0 0))
    (uuid ec712280-0db0-4074-8487-e2eabcb78806)
  )
  (wire (pts (xy 208.28 102.87) (xy 222.25 102.87))
    (stroke (width 0) (type default) (color 0 0 0 0))
    (uuid ed7edbba-6232-4633-a3d9-aa5db534a6f7)
  )
  (wire (pts (xy 162.56 100.33) (xy 162.56 116.84))
    (stroke (width 0) (type default) (color 0 0 0 0))
    (uuid ee202a96-96ee-464e-a148-4b76788af37e)
  )
  (wire (pts (xy 104.14 107.95) (xy 113.03 107.95))
    (stroke (width 0) (type default) (color 0 0 0 0))
    (uuid ef3bcccf-ae5e-4054-a9c6-4ecc26db9104)
  )
  (wire (pts (xy 205.74 104.14) (xy 205.74 107.95))
    (stroke (width 0) (type default) (color 0 0 0 0))
    (uuid f1a29b82-192c-4de7-a23b-43420d01f97d)
  )
  (wire (pts (xy 179.07 137.16) (xy 152.4 137.16))
    (stroke (width 0) (type default) (color 0 0 0 0))
    (uuid f1d1d138-429d-427c-b704-7272437d0214)
  )
  (wire (pts (xy 191.77 86.36) (xy 195.58 86.36))
    (stroke (width 0) (type default) (color 0 0 0 0))
    (uuid f1f7556c-fcf2-4b20-867c-8cb0f74b0683)
  )
  (wire (pts (xy 111.76 99.06) (xy 111.76 100.33))
    (stroke (width 0) (type default) (color 0 0 0 0))
    (uuid f2227206-4c84-434c-b85d-b3d50163b425)
  )
  (wire (pts (xy 142.24 139.7) (xy 168.91 139.7))
    (stroke (width 0) (type default) (color 0 0 0 0))
    (uuid f4b1cc82-032f-46e4-b914-51c04d09819d)
  )
  (wire (pts (xy 113.03 81.28) (xy 113.03 78.74))
    (stroke (width 0) (type default) (color 0 0 0 0))
    (uuid f75a76d7-0540-438e-8217-4f5bb9bcfbf5)
  )
  (wire (pts (xy 104.14 110.49) (xy 114.3 110.49))
    (stroke (width 0) (type default) (color 0 0 0 0))
    (uuid fa113599-7f96-408a-8974-e29046fc38ba)
  )
  (wire (pts (xy 154.94 68.58) (xy 154.94 73.66))
    (stroke (width 0) (type default) (color 0 0 0 0))
    (uuid fa5e550a-15ca-428e-9a28-8858ec4b8cc1)
  )
  (wire (pts (xy 120.65 101.6) (xy 120.65 109.22))
    (stroke (width 0) (type default) (color 0 0 0 0))
    (uuid fb7892a0-29e9-4d08-86e9-ed9ad1c00745)
  )
  (wire (pts (xy 176.53 138.43) (xy 203.2 138.43))
    (stroke (width 0) (type default) (color 0 0 0 0))
    (uuid fb9fd0cb-b849-4e64-8a61-8cf837849888)
  )
  (wire (pts (xy 203.2 138.43) (xy 203.2 129.54))
    (stroke (width 0) (type default) (color 0 0 0 0))
    (uuid fd4bdd26-e48c-49cf-9f62-cc6bfc3c25b9)
  )
  (wire (pts (xy 92.71 132.08) (xy 123.19 132.08))
    (stroke (width 0) (type default) (color 0 0 0 0))
    (uuid fde3844e-a48f-4ec9-a1ca-0d79508f5e3f)
  )
  (wire (pts (xy 104.14 120.65) (xy 105.41 120.65))
    (stroke (width 0) (type default) (color 0 0 0 0))
    (uuid ff5a6c80-eb2d-4ca5-99af-fd9f812edc6d)
  )
  (wire (pts (xy 105.41 115.57) (xy 105.41 113.03))
    (stroke (width 0) (type default) (color 0 0 0 0))
    (uuid ff9dc486-f041-4400-baee-9ba557d51de1)
  )

  (symbol (lib_id "power:+1V5") (at 106.68 120.65 180) (unit 1)
    (in_bom yes) (on_board yes) (fields_autoplaced)
    (uuid 01bb07b7-5eda-4da8-b61b-2d6248635b61)
    (property "Reference" "#PWR0104" (id 0) (at 106.68 116.84 0)
      (effects (font (size 1.27 1.27)) hide)
    )
    (property "Value" "+1V5" (id 1) (at 106.68 125.73 0))
    (property "Footprint" "" (id 2) (at 106.68 120.65 0)
      (effects (font (size 1.27 1.27)) hide)
    )
    (property "Datasheet" "" (id 3) (at 106.68 120.65 0)
      (effects (font (size 1.27 1.27)) hide)
    )
    (pin "1" (uuid 4e9d0958-edbf-44fa-833f-cfe0d4b5d3de))
  )

  (symbol (lib_id "itron_iv_6:itron_IV_6") (at 123.19 69.85 0) (unit 1)
    (in_bom yes) (on_board yes)
    (uuid 2af41a6f-50e3-4940-94db-0303a147d3dd)
    (property "Reference" "itr1" (id 0) (at 123.19 81.28 0))
    (property "Value" "itron_IV_6" (id 1) (at 123.19 83.82 0))
    (property "Footprint" "Itron:itron_IV_6" (id 2) (at 123.19 69.85 0)
      (effects (font (size 1.27 1.27)) hide)
    )
    (property "Datasheet" "" (id 3) (at 123.19 69.85 0)
      (effects (font (size 1.27 1.27)) hide)
    )
    (pin "1" (uuid 54bb022c-4f06-483c-8e47-3bfbe88d31c6))
    (pin "10" (uuid 342b238b-4bf8-4acb-8775-5aea0771c70f))
    (pin "11" (uuid ec1e31f9-8ff4-4179-bca9-591f5f6c21ff))
    (pin "2" (uuid c6856901-58da-4d47-8b84-a30396a67ec7))
    (pin "3" (uuid dc0220f9-04c1-449e-84d0-375c676e54f2))
    (pin "4" (uuid 92b9c171-f48f-4a07-a929-746ef8b65aa5))
    (pin "5" (uuid f3628934-f111-4433-a08a-77780e1fa256))
    (pin "6" (uuid 20c1f2b0-56dc-40de-9474-4172d911dab5))
    (pin "7" (uuid f21adf6a-f285-4b44-adee-f33ac0ad1ce8))
    (pin "8" (uuid 7dcc42dc-83c5-4a58-bb53-a5f05330d5f8))
    (pin "9" (uuid 48cffc50-fb06-4eb1-9b93-78f85a43b110))
  )

  (symbol (lib_id "itron_iv_6:itron_IV_6") (at 179.07 133.35 0) (mirror x) (unit 1)
    (in_bom yes) (on_board yes)
    (uuid 3759ef51-a358-4e64-b33b-579b81274c8b)
    (property "Reference" "itr6" (id 0) (at 179.07 118.11 0))
    (property "Value" "itron_IV_6" (id 1) (at 179.07 120.65 0))
    (property "Footprint" "Itron:itron_IV_6" (id 2) (at 179.07 133.35 0)
      (effects (font (size 1.27 1.27)) hide)
    )
    (property "Datasheet" "" (id 3) (at 179.07 133.35 0)
      (effects (font (size 1.27 1.27)) hide)
    )
    (pin "1" (uuid a42a2024-e3b5-49be-a857-760197edaacf))
    (pin "10" (uuid 5bc3b26b-97af-443e-88ec-f1e480af5ab0))
    (pin "11" (uuid 0887eb27-c795-47c8-8b85-804ff1430157))
    (pin "2" (uuid eabefcf5-7a2a-47a2-a506-c7f7fecadbd6))
    (pin "3" (uuid b0c8d4da-76f3-4ccc-b25a-47e4bbfa1923))
    (pin "4" (uuid b7cdbf56-648f-4b61-a929-f6df4844931e))
    (pin "5" (uuid 4527f044-2daf-485b-b819-36ca805762b3))
    (pin "6" (uuid f2b8258f-65e5-419b-9b3b-e90f689aca3a))
    (pin "7" (uuid 0a51dd9b-3906-4808-a2b6-49c2b3782c9a))
    (pin "8" (uuid 76a70ff5-b708-4b9c-ba2f-bb11f1823490))
    (pin "9" (uuid e5b1a537-025d-4960-bf65-60bf80ff2612))
  )

  (symbol (lib_id "power:GND") (at 53.34 148.59 0) (unit 1)
    (in_bom yes) (on_board yes)
    (uuid 376d7c50-6080-4e30-a4e6-806d032cc07c)
    (property "Reference" "#PWR0105" (id 0) (at 53.34 154.94 0)
      (effects (font (size 1.27 1.27)) hide)
    )
    (property "Value" "GND" (id 1) (at 52.07 152.4 0)
      (effects (font (size 1.27 1.27)) (justify left))
    )
    (property "Footprint" "" (id 2) (at 53.34 148.59 0)
      (effects (font (size 1.27 1.27)) hide)
    )
    (property "Datasheet" "" (id 3) (at 53.34 148.59 0)
      (effects (font (size 1.27 1.27)) hide)
    )
    (pin "1" (uuid 0b7f4dc0-e5af-48a3-a5fc-b9cd263f8400))
  )

  (symbol (lib_id "Mechanical:MountingHole_Pad") (at 55.88 140.97 270) (unit 1)
    (in_bom yes) (on_board yes) (fields_autoplaced)
    (uuid 4372b44a-6a1a-48c4-a545-84d22863eb44)
    (property "Reference" "H4" (id 0) (at 59.69 139.6999 90)
      (effects (font (size 1.27 1.27)) (justify left))
    )
    (property "Value" "MountingHole_Pad" (id 1) (at 59.69 142.2399 90)
      (effects (font (size 1.27 1.27)) (justify left))
    )
    (property "Footprint" "MountingHole:MountingHole_3.5mm_Pad_Via" (id 2) (at 55.88 140.97 0)
      (effects (font (size 1.27 1.27)) hide)
    )
    (property "Datasheet" "~" (id 3) (at 55.88 140.97 0)
      (effects (font (size 1.27 1.27)) hide)
    )
    (pin "1" (uuid ec3de4ef-d63c-462e-86b6-af8ddde029cc))
  )

  (symbol (lib_id "itron_iv_6:itron_IV_6") (at 205.74 69.85 0) (unit 1)
    (in_bom yes) (on_board yes)
    (uuid 513c787d-af71-4c0e-b09c-7970ce5cab4f)
    (property "Reference" "itr4" (id 0) (at 205.74 81.28 0))
    (property "Value" "itron_IV_6" (id 1) (at 205.74 83.82 0))
    (property "Footprint" "Itron:itron_IV_6" (id 2) (at 205.74 69.85 0)
      (effects (font (size 1.27 1.27)) hide)
    )
    (property "Datasheet" "" (id 3) (at 205.74 69.85 0)
      (effects (font (size 1.27 1.27)) hide)
    )
    (pin "1" (uuid 938031ef-949a-4d30-a689-e9f1a13859a1))
    (pin "10" (uuid 0c8d52d9-074d-40bc-b82c-fc19c0dd0720))
    (pin "11" (uuid b84635d3-89fc-4969-a377-9e49692b6958))
    (pin "2" (uuid e09afd86-2143-4e84-8ea7-5c1a72bd1bca))
    (pin "3" (uuid 4bdf9273-f70d-4ee3-a52b-4a4d159d5e4d))
    (pin "4" (uuid c7a4b59d-cad2-44a0-b409-ce5b6e36e650))
    (pin "5" (uuid c7a57b9c-7174-45c9-aecd-68da1b96447c))
    (pin "6" (uuid 2aa797da-22c8-4162-a9ff-e88bddb1e2cb))
    (pin "7" (uuid 0f438ca3-64ee-42a4-ac03-e250d39c13cc))
    (pin "8" (uuid a454f013-fe39-462a-9b17-ff02f0725582))
    (pin "9" (uuid 39d923a3-b0d2-4d5a-a6a0-2b7be3deae1a))
  )

  (symbol (lib_id "itron_iv_6:itron_IV_6") (at 123.19 133.35 0) (mirror x) (unit 1)
    (in_bom yes) (on_board yes)
    (uuid 6558fe1b-a3c8-432c-ad80-f285a01e900f)
    (property "Reference" "itr8" (id 0) (at 123.19 118.11 0))
    (property "Value" "itron_IV_6" (id 1) (at 123.19 120.65 0))
    (property "Footprint" "Itron:itron_IV_6" (id 2) (at 123.19 133.35 0)
      (effects (font (size 1.27 1.27)) hide)
    )
    (property "Datasheet" "" (id 3) (at 123.19 133.35 0)
      (effects (font (size 1.27 1.27)) hide)
    )
    (pin "1" (uuid 5492858d-1b8c-4f1a-b061-e929f40eed8a))
    (pin "10" (uuid a9633d26-daae-48a7-b5dd-6c0f294c3c20))
    (pin "11" (uuid c081b96e-0b0f-4ef0-bf28-677d9edbaf46))
    (pin "2" (uuid 14855801-8f44-4f5e-ab81-ed42d847ed77))
    (pin "3" (uuid 4055b357-393c-467b-b2cc-71034cd4083f))
    (pin "4" (uuid f05569b3-6143-4fe4-a78f-67d920e91f17))
    (pin "5" (uuid e4c5aa6b-a75e-4fd0-97fb-9ccf912712e8))
    (pin "6" (uuid 51226bfd-6ec6-404b-9079-e56e2cba4e37))
    (pin "7" (uuid 13fd50f6-1d47-4741-8619-6c6f05880696))
    (pin "8" (uuid dde91a35-c57f-471e-9e48-d233081da16f))
    (pin "9" (uuid 5b2587c1-1662-49eb-8a7b-bef16ed23d9c))
  )

  (symbol (lib_id "power:+1V5") (at 222.25 102.87 270) (unit 1)
    (in_bom yes) (on_board yes) (fields_autoplaced)
    (uuid 67f0fb9a-0f63-43d9-89e2-b6a97dc8e6af)
    (property "Reference" "#PWR0102" (id 0) (at 218.44 102.87 0)
      (effects (font (size 1.27 1.27)) hide)
    )
    (property "Value" "+1V5" (id 1) (at 226.06 102.8699 90)
      (effects (font (size 1.27 1.27)) (justify left))
    )
    (property "Footprint" "" (id 2) (at 222.25 102.87 0)
      (effects (font (size 1.27 1.27)) hide)
    )
    (property "Datasheet" "" (id 3) (at 222.25 102.87 0)
      (effects (font (size 1.27 1.27)) hide)
    )
    (pin "1" (uuid 0dedfdff-4f57-4089-a6d5-07f079f19d37))
  )

  (symbol (lib_id "power:GND") (at 222.25 100.33 90) (unit 1)
    (in_bom yes) (on_board yes) (fields_autoplaced)
    (uuid 791d115a-50b3-4488-9597-daa84ef7a043)
    (property "Reference" "#PWR0101" (id 0) (at 228.6 100.33 0)
      (effects (font (size 1.27 1.27)) hide)
    )
    (property "Value" "GND" (id 1) (at 226.06 100.3299 90)
      (effects (font (size 1.27 1.27)) (justify right))
    )
    (property "Footprint" "" (id 2) (at 222.25 100.33 0)
      (effects (font (size 1.27 1.27)) hide)
    )
    (property "Datasheet" "" (id 3) (at 222.25 100.33 0)
      (effects (font (size 1.27 1.27)) hide)
    )
    (pin "1" (uuid d27e3a7c-0ca6-426c-b773-64652e0b1a61))
  )

  (symbol (lib_id "Mechanical:MountingHole_Pad") (at 55.88 128.27 270) (unit 1)
    (in_bom yes) (on_board yes) (fields_autoplaced)
    (uuid 82f68513-7a00-4aef-93a3-a23afb2a9bc4)
    (property "Reference" "H2" (id 0) (at 59.69 126.9999 90)
      (effects (font (size 1.27 1.27)) (justify left))
    )
    (property "Value" "MountingHole_Pad" (id 1) (at 59.69 129.5399 90)
      (effects (font (size 1.27 1.27)) (justify left))
    )
    (property "Footprint" "MountingHole:MountingHole_3.5mm_Pad_Via" (id 2) (at 55.88 128.27 0)
      (effects (font (size 1.27 1.27)) hide)
    )
    (property "Datasheet" "~" (id 3) (at 55.88 128.27 0)
      (effects (font (size 1.27 1.27)) hide)
    )
    (pin "1" (uuid 07c3255a-2571-4f59-b01e-081cb4f46da4))
  )

  (symbol (lib_id "power:GND") (at 106.68 113.03 90) (unit 1)
    (in_bom yes) (on_board yes) (fields_autoplaced)
    (uuid 88fbee1a-2719-4ce6-98b9-473040b84750)
    (property "Reference" "#PWR0103" (id 0) (at 113.03 113.03 0)
      (effects (font (size 1.27 1.27)) hide)
    )
    (property "Value" "GND" (id 1) (at 110.49 113.0299 90)
      (effects (font (size 1.27 1.27)) (justify right))
    )
    (property "Footprint" "" (id 2) (at 106.68 113.03 0)
      (effects (font (size 1.27 1.27)) hide)
    )
    (property "Datasheet" "" (id 3) (at 106.68 113.03 0)
      (effects (font (size 1.27 1.27)) hide)
    )
    (pin "1" (uuid 69bae8a7-b61a-47ea-b34d-f6a4907b14d5))
  )

  (symbol (lib_id "itron_iv_6:itron_IV_6") (at 205.74 133.35 0) (mirror x) (unit 1)
    (in_bom yes) (on_board yes)
    (uuid 8afd9c35-4e4d-476d-9e26-4a9f78600246)
    (property "Reference" "itr5" (id 0) (at 205.74 118.11 0))
    (property "Value" "itron_IV_6" (id 1) (at 205.74 120.65 0))
    (property "Footprint" "Itron:itron_IV_6" (id 2) (at 205.74 133.35 0)
      (effects (font (size 1.27 1.27)) hide)
    )
    (property "Datasheet" "" (id 3) (at 205.74 133.35 0)
      (effects (font (size 1.27 1.27)) hide)
    )
    (pin "1" (uuid 0150a597-9ca4-4081-88d2-6ff7d09ea1a2))
    (pin "10" (uuid a294cc83-b7a3-4d8e-8390-ecf01eed960d))
    (pin "11" (uuid 12a61f3b-c9a1-475a-b95a-228fd98d7166))
    (pin "2" (uuid e22a8115-21c4-4079-b548-13d39057d641))
    (pin "3" (uuid f467e92c-cfec-45d6-9135-43909aa23e31))
    (pin "4" (uuid 2a6b41d0-b2b4-448f-b144-f3f20353eb05))
    (pin "5" (uuid 91e74aa6-705f-40ba-b6bd-d9322523111d))
    (pin "6" (uuid 8bd21d15-4278-4bfb-9081-da5dec67eaa5))
    (pin "7" (uuid 2194fffb-efb2-4804-822b-bc479e4ddd6a))
    (pin "8" (uuid 70f53d3a-f58b-46f3-aa80-cb222b643443))
    (pin "9" (uuid ce5cd5e6-edb8-4bc2-9942-4e6e4a879e1c))
  )

  (symbol (lib_id "Mechanical:MountingHole_Pad") (at 55.88 121.92 270) (unit 1)
    (in_bom yes) (on_board yes) (fields_autoplaced)
    (uuid 959049d5-8131-4d90-90cb-f74b567fc392)
    (property "Reference" "H1" (id 0) (at 59.69 120.6499 90)
      (effects (font (size 1.27 1.27)) (justify left))
    )
    (property "Value" "MountingHole_Pad" (id 1) (at 59.69 123.1899 90)
      (effects (font (size 1.27 1.27)) (justify left))
    )
    (property "Footprint" "MountingHole:MountingHole_3.5mm_Pad_Via" (id 2) (at 55.88 121.92 0)
      (effects (font (size 1.27 1.27)) hide)
    )
    (property "Datasheet" "~" (id 3) (at 55.88 121.92 0)
      (effects (font (size 1.27 1.27)) hide)
    )
    (pin "1" (uuid 32c68fd9-0ee2-44a9-bf21-de6162262749))
  )

  (symbol (lib_id "Connector_Generic:Conn_01x08") (at 121.92 48.26 90) (unit 1)
    (in_bom yes) (on_board yes)
    (uuid ab4e121c-071f-4432-a221-b67e64d6ff8d)
    (property "Reference" "JT2" (id 0) (at 121.92 41.91 90))
    (property "Value" "Conn_01x08" (id 1) (at 121.92 44.45 90))
    (property "Footprint" "Connector_PinHeader_2.54mm:PinHeader_1x08_P2.54mm_Vertical" (id 2) (at 121.92 48.26 0)
      (effects (font (size 1.27 1.27)) hide)
    )
    (property "Datasheet" "~" (id 3) (at 121.92 48.26 0)
      (effects (font (size 1.27 1.27)) hide)
    )
    (pin "1" (uuid 9fd9e8ec-fc98-4154-ad2e-11ac105668bf))
    (pin "2" (uuid 6d7a616c-ac20-4197-b8c5-9e5133e13b25))
    (pin "3" (uuid a174e5fd-6a2e-44e2-8acc-20c14c8a9718))
    (pin "4" (uuid c6c65753-d91c-4ba2-af2d-d160b7cd94a1))
    (pin "5" (uuid 0fe48391-8f53-4252-b2ae-7bbbd9bf6af6))
    (pin "6" (uuid ea8af268-a61a-4080-9052-189d35ada315))
    (pin "7" (uuid 0b95d5f8-be59-4aa4-9e3b-2ddb0751a97c))
    (pin "8" (uuid f0438862-6f0b-4bc2-aa8e-eb45642585c1))
  )

  (symbol (lib_id "itron_iv_6:itron_IV_6") (at 152.4 69.85 0) (unit 1)
    (in_bom yes) (on_board yes)
    (uuid c673263c-ad3f-41fc-9390-265c5a6a6f7b)
    (property "Reference" "itr2" (id 0) (at 152.4 81.28 0))
    (property "Value" "itron_IV_6" (id 1) (at 152.4 83.82 0))
    (property "Footprint" "Itron:itron_IV_6" (id 2) (at 152.4 69.85 0)
      (effects (font (size 1.27 1.27)) hide)
    )
    (property "Datasheet" "" (id 3) (at 152.4 69.85 0)
      (effects (font (size 1.27 1.27)) hide)
    )
    (pin "1" (uuid 1e338d48-329f-4bcc-9503-54fc71796eff))
    (pin "10" (uuid 82b0fb7d-5548-49c3-b3cc-d6b0947d4a74))
    (pin "11" (uuid 8c738627-4c1f-44d2-b911-7c712b768eb7))
    (pin "2" (uuid 8b641929-9b2e-4337-9bbf-c366664cc31a))
    (pin "3" (uuid f28dc298-8497-4d7a-b050-43d8f1dd7baa))
    (pin "4" (uuid 8dfdb0e8-afed-4da2-ac56-e7242954fe39))
    (pin "5" (uuid 72556f8f-c552-4b43-94e1-656395d6a1e4))
    (pin "6" (uuid aeab754d-8d4c-4cc3-9c25-d1bfe755ade9))
    (pin "7" (uuid fa7db4f9-3398-4772-8fa3-435b9044520a))
    (pin "8" (uuid 39597e81-f70e-461a-8b54-a3cbec89ae00))
    (pin "9" (uuid 790a19b0-516d-4651-b0b4-2f431397247f))
  )

  (symbol (lib_id "itron_iv_6:itron_IV_6") (at 179.07 69.85 0) (unit 1)
    (in_bom yes) (on_board yes)
    (uuid d1a36df1-5a51-492c-9a9f-effbb0092bf0)
    (property "Reference" "itr3" (id 0) (at 179.07 81.28 0))
    (property "Value" "itron_IV_6" (id 1) (at 179.07 83.82 0))
    (property "Footprint" "Itron:itron_IV_6" (id 2) (at 179.07 69.85 0)
      (effects (font (size 1.27 1.27)) hide)
    )
    (property "Datasheet" "" (id 3) (at 179.07 69.85 0)
      (effects (font (size 1.27 1.27)) hide)
    )
    (pin "1" (uuid c17611e7-b006-48aa-88a5-0a087d80bf70))
    (pin "10" (uuid d2463a16-5ee1-4ea5-b724-3f5c6b12b298))
    (pin "11" (uuid 0c3f101c-5d7c-4f8f-abf0-4066322fab6b))
    (pin "2" (uuid 5ac9e4bc-322c-4ce1-942d-8bdf6f2db28f))
    (pin "3" (uuid fd4c7253-893d-46b0-ad35-78e7474dbe90))
    (pin "4" (uuid 1fc1f7a5-2a0c-44bb-8e36-dd6ae1a56c20))
    (pin "5" (uuid f4d361d4-830c-4f52-84de-4efdea02d66c))
    (pin "6" (uuid 110e0661-9a24-4e5c-a8df-427c10f2d91e))
    (pin "7" (uuid 43fce39d-e397-4218-a870-6e68ca7850bb))
    (pin "8" (uuid e682de9f-cfe4-4eb4-bf46-5f9ba649d8da))
    (pin "9" (uuid 5e9726ce-4d01-40c5-88cc-419709628a07))
  )

  (symbol (lib_id "Connector_Generic:Conn_01x12") (at 99.06 105.41 0) (mirror y) (unit 1)
    (in_bom yes) (on_board yes) (fields_autoplaced)
    (uuid e35b130e-f843-46e9-acbf-8b5ba0b2103d)
    (property "Reference" "JT1" (id 0) (at 99.06 86.36 0))
    (property "Value" "Conn_01x12" (id 1) (at 99.06 88.9 0))
    (property "Footprint" "Connector_PinHeader_2.54mm:PinHeader_1x12_P2.54mm_Vertical" (id 2) (at 99.06 105.41 0)
      (effects (font (size 1.27 1.27)) hide)
    )
    (property "Datasheet" "~" (id 3) (at 99.06 105.41 0)
      (effects (font (size 1.27 1.27)) hide)
    )
    (pin "1" (uuid a584cb3f-46fc-42a4-8238-00f0607e473c))
    (pin "10" (uuid 3be6716b-c94c-4f34-a61a-deca4f26ea7d))
    (pin "11" (uuid 1ba0a924-5a93-4f57-a24e-3ffa160684ab))
    (pin "12" (uuid 1c0e8dc6-a370-4778-81d5-2ba412ea80cf))
    (pin "2" (uuid b1c1e002-7642-43e2-822f-4c56df2f2a59))
    (pin "3" (uuid 91ae267d-279f-46a9-abd5-7bc444f6ecf8))
    (pin "4" (uuid a56bce05-d5ce-4e7f-af3b-5cef3847303d))
    (pin "5" (uuid d40a49b0-8941-4123-9625-76b5ea7fc0cb))
    (pin "6" (uuid 65a604a7-ec4f-4432-a689-bbc947200926))
    (pin "7" (uuid ce799805-aaf7-43d2-b2a1-66ce86aabe28))
    (pin "8" (uuid 056cfc31-1ea1-40ac-a3ba-7cb4c461055a))
    (pin "9" (uuid 67b1d064-e9d6-4b1b-9b92-d265bcc0d08e))
  )

  (symbol (lib_id "itron_iv_6:itron_IV_6") (at 152.4 133.35 0) (mirror x) (unit 1)
    (in_bom yes) (on_board yes)
    (uuid ee16771b-aed3-4080-b343-6e728660dc9f)
    (property "Reference" "itr7" (id 0) (at 152.4 118.11 0))
    (property "Value" "itron_IV_6" (id 1) (at 152.4 120.65 0))
    (property "Footprint" "Itron:itron_IV_6" (id 2) (at 152.4 133.35 0)
      (effects (font (size 1.27 1.27)) hide)
    )
    (property "Datasheet" "" (id 3) (at 152.4 133.35 0)
      (effects (font (size 1.27 1.27)) hide)
    )
    (pin "1" (uuid a9b08520-ec44-45e0-b0f2-0f856e397d94))
    (pin "10" (uuid bef3bb41-5dd6-4e07-9e39-f128ef5b94e9))
    (pin "11" (uuid 3b83f56b-0c5b-445a-bb70-068f18809420))
    (pin "2" (uuid 9d0ff84c-655a-47d5-bae8-4ebccf128b98))
    (pin "3" (uuid 98af1557-14b5-4fcd-83f4-700ba43358c4))
    (pin "4" (uuid 78d57e68-36dc-47c5-997a-7a524fc0acf1))
    (pin "5" (uuid 9b7bba5b-2ce4-45e8-9f55-e10d1a19ac99))
    (pin "6" (uuid 76329ebf-362f-458d-bcae-6914e50b808f))
    (pin "7" (uuid c719e44a-a7cf-4402-b739-a46a404f89a2))
    (pin "8" (uuid dde424b3-eae3-405f-8fed-a53ad178c6a8))
    (pin "9" (uuid a11f8acc-bae0-4c11-a859-c3c2c341939a))
  )

  (symbol (lib_id "Mechanical:MountingHole_Pad") (at 55.88 134.62 270) (unit 1)
    (in_bom yes) (on_board yes) (fields_autoplaced)
    (uuid f6c3beea-4538-49d6-865e-b0afdbf620ae)
    (property "Reference" "H3" (id 0) (at 59.69 133.3499 90)
      (effects (font (size 1.27 1.27)) (justify left))
    )
    (property "Value" "MountingHole_Pad" (id 1) (at 59.69 135.8899 90)
      (effects (font (size 1.27 1.27)) (justify left))
    )
    (property "Footprint" "MountingHole:MountingHole_3.5mm_Pad_Via" (id 2) (at 55.88 134.62 0)
      (effects (font (size 1.27 1.27)) hide)
    )
    (property "Datasheet" "~" (id 3) (at 55.88 134.62 0)
      (effects (font (size 1.27 1.27)) hide)
    )
    (pin "1" (uuid c514f453-4501-4d6a-9823-2fa97049b075))
  )

  (sheet_instances
    (path "/" (page "1"))
  )

  (symbol_instances
    (path "/791d115a-50b3-4488-9597-daa84ef7a043"
      (reference "#PWR0101") (unit 1) (value "GND") (footprint "")
    )
    (path "/67f0fb9a-0f63-43d9-89e2-b6a97dc8e6af"
      (reference "#PWR0102") (unit 1) (value "+1V5") (footprint "")
    )
    (path "/88fbee1a-2719-4ce6-98b9-473040b84750"
      (reference "#PWR0103") (unit 1) (value "GND") (footprint "")
    )
    (path "/01bb07b7-5eda-4da8-b61b-2d6248635b61"
      (reference "#PWR0104") (unit 1) (value "+1V5") (footprint "")
    )
    (path "/376d7c50-6080-4e30-a4e6-806d032cc07c"
      (reference "#PWR0105") (unit 1) (value "GND") (footprint "")
    )
    (path "/959049d5-8131-4d90-90cb-f74b567fc392"
      (reference "H1") (unit 1) (value "MountingHole_Pad") (footprint "MountingHole:MountingHole_3.5mm_Pad_Via")
    )
    (path "/82f68513-7a00-4aef-93a3-a23afb2a9bc4"
      (reference "H2") (unit 1) (value "MountingHole_Pad") (footprint "MountingHole:MountingHole_3.5mm_Pad_Via")
    )
    (path "/f6c3beea-4538-49d6-865e-b0afdbf620ae"
      (reference "H3") (unit 1) (value "MountingHole_Pad") (footprint "MountingHole:MountingHole_3.5mm_Pad_Via")
    )
    (path "/4372b44a-6a1a-48c4-a545-84d22863eb44"
      (reference "H4") (unit 1) (value "MountingHole_Pad") (footprint "MountingHole:MountingHole_3.5mm_Pad_Via")
    )
    (path "/e35b130e-f843-46e9-acbf-8b5ba0b2103d"
      (reference "JT1") (unit 1) (value "Conn_01x12") (footprint "Connector_PinHeader_2.54mm:PinHeader_1x12_P2.54mm_Vertical")
    )
    (path "/ab4e121c-071f-4432-a221-b67e64d6ff8d"
      (reference "JT2") (unit 1) (value "Conn_01x08") (footprint "Connector_PinHeader_2.54mm:PinHeader_1x08_P2.54mm_Vertical")
    )
    (path "/2af41a6f-50e3-4940-94db-0303a147d3dd"
      (reference "itr1") (unit 1) (value "itron_IV_6") (footprint "Itron:itron_IV_6")
    )
    (path "/c673263c-ad3f-41fc-9390-265c5a6a6f7b"
      (reference "itr2") (unit 1) (value "itron_IV_6") (footprint "Itron:itron_IV_6")
    )
    (path "/d1a36df1-5a51-492c-9a9f-effbb0092bf0"
      (reference "itr3") (unit 1) (value "itron_IV_6") (footprint "Itron:itron_IV_6")
    )
    (path "/513c787d-af71-4c0e-b09c-7970ce5cab4f"
      (reference "itr4") (unit 1) (value "itron_IV_6") (footprint "Itron:itron_IV_6")
    )
    (path "/8afd9c35-4e4d-476d-9e26-4a9f78600246"
      (reference "itr5") (unit 1) (value "itron_IV_6") (footprint "Itron:itron_IV_6")
    )
    (path "/3759ef51-a358-4e64-b33b-579b81274c8b"
      (reference "itr6") (unit 1) (value "itron_IV_6") (footprint "Itron:itron_IV_6")
    )
    (path "/ee16771b-aed3-4080-b343-6e728660dc9f"
      (reference "itr7") (unit 1) (value "itron_IV_6") (footprint "Itron:itron_IV_6")
    )
    (path "/6558fe1b-a3c8-432c-ad80-f285a01e900f"
      (reference "itr8") (unit 1) (value "itron_IV_6") (footprint "Itron:itron_IV_6")
    )
  )
)
